EESchema Schematic File Version 4
EELAYER 30 0
EELAYER END
$Descr A4 11693 8268
encoding utf-8
Sheet 1 1
Title "TPA6120 based headphone amplifier - Headphone Amplifier"
Date "2020-06-21"
Rev "2.0.0"
Comp "Cocoacrumbs"
Comment1 ""
Comment2 ""
Comment3 ""
Comment4 ""
$EndDescr
$Comp
L Device:C C1
U 1 1 5DC71706
P 2450 1600
F 0 "C1" H 2565 1646 50  0000 L CNN
F 1 "10uF" H 2565 1555 50  0000 L CNN
F 2 "Capacitor_SMD:C_0805_2012Metric_Pad1.15x1.40mm_HandSolder" H 2488 1450 50  0001 C CNN
F 3 "~" H 2450 1600 50  0001 C CNN
	1    2450 1600
	1    0    0    -1  
$EndComp
$Comp
L Device:C C5
U 1 1 5DC71A9E
P 2900 1600
F 0 "C5" H 3015 1646 50  0000 L CNN
F 1 "0.1uF" H 3015 1555 50  0000 L CNN
F 2 "Capacitor_SMD:C_0805_2012Metric_Pad1.15x1.40mm_HandSolder" H 2938 1450 50  0001 C CNN
F 3 "~" H 2900 1600 50  0001 C CNN
	1    2900 1600
	1    0    0    -1  
$EndComp
$Comp
L Device:C C9
U 1 1 5DC71E7D
P 3350 1600
F 0 "C9" H 3465 1646 50  0000 L CNN
F 1 "0.1uF" H 3465 1555 50  0000 L CNN
F 2 "Capacitor_SMD:C_0805_2012Metric_Pad1.15x1.40mm_HandSolder" H 3388 1450 50  0001 C CNN
F 3 "~" H 3350 1600 50  0001 C CNN
	1    3350 1600
	1    0    0    -1  
$EndComp
Wire Wire Line
	2450 1450 2450 1350
Wire Wire Line
	2450 1350 2900 1350
Wire Wire Line
	3350 1350 3350 1450
Wire Wire Line
	2900 1450 2900 1350
Connection ~ 2900 1350
Wire Wire Line
	2900 1350 3350 1350
Wire Wire Line
	3350 1750 3350 1850
Wire Wire Line
	3350 1850 2900 1850
Wire Wire Line
	2450 1850 2450 1750
Wire Wire Line
	2900 1750 2900 1850
Connection ~ 2900 1850
Wire Wire Line
	2900 1850 2450 1850
Text GLabel 2000 1350 0    50   Input ~ 0
RVCC+
Wire Wire Line
	2300 1350 2450 1350
Connection ~ 2450 1350
$Comp
L Device:C C2
U 1 1 5DC9D840
P 2450 2550
F 0 "C2" H 2565 2596 50  0000 L CNN
F 1 "10uF" H 2565 2505 50  0000 L CNN
F 2 "Capacitor_SMD:C_0805_2012Metric_Pad1.15x1.40mm_HandSolder" H 2488 2400 50  0001 C CNN
F 3 "~" H 2450 2550 50  0001 C CNN
	1    2450 2550
	1    0    0    -1  
$EndComp
$Comp
L Device:C C6
U 1 1 5DC9D846
P 2900 2550
F 0 "C6" H 3015 2596 50  0000 L CNN
F 1 "0.1uF" H 3015 2505 50  0000 L CNN
F 2 "Capacitor_SMD:C_0805_2012Metric_Pad1.15x1.40mm_HandSolder" H 2938 2400 50  0001 C CNN
F 3 "~" H 2900 2550 50  0001 C CNN
	1    2900 2550
	1    0    0    -1  
$EndComp
$Comp
L Device:C C10
U 1 1 5DC9D84C
P 3350 2550
F 0 "C10" H 3465 2596 50  0000 L CNN
F 1 "0.1uF" H 3465 2505 50  0000 L CNN
F 2 "Capacitor_SMD:C_0805_2012Metric_Pad1.15x1.40mm_HandSolder" H 3388 2400 50  0001 C CNN
F 3 "~" H 3350 2550 50  0001 C CNN
	1    3350 2550
	1    0    0    -1  
$EndComp
Wire Wire Line
	2450 2400 2450 2300
Wire Wire Line
	2450 2300 2900 2300
Wire Wire Line
	3350 2300 3350 2400
Wire Wire Line
	2900 2400 2900 2300
Connection ~ 2900 2300
Wire Wire Line
	2900 2300 3350 2300
Wire Wire Line
	3350 2700 3350 2800
Wire Wire Line
	3350 2800 2900 2800
Wire Wire Line
	2450 2800 2450 2700
Wire Wire Line
	2900 2700 2900 2800
Connection ~ 2900 2800
Text GLabel 2000 2300 0    50   Input ~ 0
RVCC-
Wire Wire Line
	2300 2300 2450 2300
Connection ~ 2450 2300
$Comp
L Device:C C3
U 1 1 5DCA498D
P 2450 5550
F 0 "C3" H 2565 5596 50  0000 L CNN
F 1 "10uF" H 2565 5505 50  0000 L CNN
F 2 "Capacitor_SMD:C_0805_2012Metric_Pad1.15x1.40mm_HandSolder" H 2488 5400 50  0001 C CNN
F 3 "~" H 2450 5550 50  0001 C CNN
	1    2450 5550
	1    0    0    -1  
$EndComp
$Comp
L Device:C C7
U 1 1 5DCA4993
P 2900 5550
F 0 "C7" H 3015 5596 50  0000 L CNN
F 1 "0.1uF" H 3015 5505 50  0000 L CNN
F 2 "Capacitor_SMD:C_0805_2012Metric_Pad1.15x1.40mm_HandSolder" H 2938 5400 50  0001 C CNN
F 3 "~" H 2900 5550 50  0001 C CNN
	1    2900 5550
	1    0    0    -1  
$EndComp
$Comp
L Device:C C11
U 1 1 5DCA4999
P 3350 5550
F 0 "C11" H 3465 5596 50  0000 L CNN
F 1 "0.1uF" H 3465 5505 50  0000 L CNN
F 2 "Capacitor_SMD:C_0805_2012Metric_Pad1.15x1.40mm_HandSolder" H 3388 5400 50  0001 C CNN
F 3 "~" H 3350 5550 50  0001 C CNN
	1    3350 5550
	1    0    0    -1  
$EndComp
Wire Wire Line
	2450 5400 2450 5300
Wire Wire Line
	2450 5300 2900 5300
Wire Wire Line
	3350 5300 3350 5400
Wire Wire Line
	2900 5400 2900 5300
Connection ~ 2900 5300
Wire Wire Line
	2900 5300 3350 5300
Wire Wire Line
	3350 5700 3350 5800
Wire Wire Line
	3350 5800 2900 5800
Wire Wire Line
	2450 5800 2450 5700
Wire Wire Line
	2900 5700 2900 5800
Connection ~ 2900 5800
Wire Wire Line
	2900 5800 2450 5800
Text GLabel 2000 5300 0    50   Input ~ 0
LVCC-
Wire Wire Line
	2300 5300 2450 5300
Connection ~ 2450 5300
$Comp
L Device:C C4
U 1 1 5DCA49B5
P 2450 6500
F 0 "C4" H 2565 6546 50  0000 L CNN
F 1 "10uF" H 2565 6455 50  0000 L CNN
F 2 "Capacitor_SMD:C_0805_2012Metric_Pad1.15x1.40mm_HandSolder" H 2488 6350 50  0001 C CNN
F 3 "~" H 2450 6500 50  0001 C CNN
	1    2450 6500
	1    0    0    -1  
$EndComp
$Comp
L Device:C C8
U 1 1 5DCA49BB
P 2900 6500
F 0 "C8" H 3015 6546 50  0000 L CNN
F 1 "0.1uF" H 3015 6455 50  0000 L CNN
F 2 "Capacitor_SMD:C_0805_2012Metric_Pad1.15x1.40mm_HandSolder" H 2938 6350 50  0001 C CNN
F 3 "~" H 2900 6500 50  0001 C CNN
	1    2900 6500
	1    0    0    -1  
$EndComp
$Comp
L Device:C C12
U 1 1 5DCA49C1
P 3350 6500
F 0 "C12" H 3465 6546 50  0000 L CNN
F 1 "0.1uF" H 3465 6455 50  0000 L CNN
F 2 "Capacitor_SMD:C_0805_2012Metric_Pad1.15x1.40mm_HandSolder" H 3388 6350 50  0001 C CNN
F 3 "~" H 3350 6500 50  0001 C CNN
	1    3350 6500
	1    0    0    -1  
$EndComp
Wire Wire Line
	2450 6350 2450 6250
Wire Wire Line
	2450 6250 2900 6250
Wire Wire Line
	3350 6250 3350 6350
Wire Wire Line
	2900 6350 2900 6250
Connection ~ 2900 6250
Wire Wire Line
	2900 6250 3350 6250
Wire Wire Line
	3350 6650 3350 6750
Wire Wire Line
	3350 6750 2900 6750
Wire Wire Line
	2450 6750 2450 6650
Wire Wire Line
	2900 6650 2900 6750
Connection ~ 2900 6750
Wire Wire Line
	2900 6750 2450 6750
Text GLabel 2000 6250 0    50   Input ~ 0
LVCC+
Wire Wire Line
	2300 6250 2450 6250
Connection ~ 2450 6250
$Comp
L Device:R R3
U 1 1 5DCAB329
P 5350 5800
F 0 "R3" V 5150 5800 50  0000 C CNN
F 1 "39.2" V 5250 5800 50  0000 C CNN
F 2 "Resistor_SMD:R_0805_2012Metric_Pad1.15x1.40mm_HandSolder" V 5280 5800 50  0001 C CNN
F 3 "~" H 5350 5800 50  0001 C CNN
	1    5350 5800
	0    -1   -1   0   
$EndComp
$Comp
L Device:R R4
U 1 1 5DCAC3DA
P 5450 1950
F 0 "R4" V 5657 1950 50  0000 C CNN
F 1 "39.2" V 5566 1950 50  0000 C CNN
F 2 "Resistor_SMD:R_0805_2012Metric_Pad1.15x1.40mm_HandSolder" V 5380 1950 50  0001 C CNN
F 3 "~" H 5450 1950 50  0001 C CNN
	1    5450 1950
	0    -1   -1   0   
$EndComp
Wire Wire Line
	2450 2800 2900 2800
NoConn ~ 5150 5200
NoConn ~ 5250 5200
NoConn ~ 5350 5200
NoConn ~ 5450 5200
NoConn ~ 5550 5200
NoConn ~ 5250 2600
NoConn ~ 5350 2600
NoConn ~ 5450 2600
NoConn ~ 5550 2600
NoConn ~ 5650 2600
$Comp
L Device:R R1
U 1 1 5DCBC435
P 5050 5450
F 0 "R1" H 5120 5496 50  0000 L CNN
F 1 "806" H 5120 5405 50  0000 L CNN
F 2 "Resistor_SMD:R_0805_2012Metric_Pad1.15x1.40mm_HandSolder" V 4980 5450 50  0001 C CNN
F 3 "~" H 5050 5450 50  0001 C CNN
	1    5050 5450
	1    0    0    -1  
$EndComp
$Comp
L Device:R R2
U 1 1 5DCBCA5B
P 5150 2350
F 0 "R2" H 5220 2396 50  0000 L CNN
F 1 "806" H 5220 2305 50  0000 L CNN
F 2 "Resistor_SMD:R_0805_2012Metric_Pad1.15x1.40mm_HandSolder" V 5080 2350 50  0001 C CNN
F 3 "~" H 5150 2350 50  0001 C CNN
	1    5150 2350
	1    0    0    -1  
$EndComp
$Comp
L Device:R R5
U 1 1 5DCD16CA
P 6150 2150
F 0 "R5" V 6350 2150 50  0000 C CNN
F 1 "50" V 6250 2150 50  0000 C CNN
F 2 "Resistor_SMD:R_0805_2012Metric_Pad1.15x1.40mm_HandSolder" V 6080 2150 50  0001 C CNN
F 3 "~" H 6150 2150 50  0001 C CNN
	1    6150 2150
	0    -1   -1   0   
$EndComp
Wire Wire Line
	5150 2550 5150 2600
$Comp
L Device:R R6
U 1 1 5DCE1F88
P 6150 2550
F 0 "R6" V 6350 2550 50  0000 C CNN
F 1 "806" V 6250 2550 50  0000 C CNN
F 2 "Resistor_SMD:R_0805_2012Metric_Pad1.15x1.40mm_HandSolder" V 6080 2550 50  0001 C CNN
F 3 "~" H 6150 2550 50  0001 C CNN
	1    6150 2550
	0    -1   -1   0   
$EndComp
Wire Wire Line
	5300 1950 5150 1950
Wire Wire Line
	4850 1950 4850 2600
Connection ~ 5150 1950
Wire Wire Line
	5150 1950 4850 1950
Wire Wire Line
	5050 2150 5050 2600
Wire Wire Line
	5150 1950 5150 2200
Wire Wire Line
	5150 2500 5150 2550
Connection ~ 5150 2550
$Comp
L Device:R R8
U 1 1 5DCFF023
P 6150 5650
F 0 "R8" V 6350 5650 50  0000 C CNN
F 1 "50" V 6250 5650 50  0000 C CNN
F 2 "Resistor_SMD:R_0805_2012Metric_Pad1.15x1.40mm_HandSolder" V 6080 5650 50  0001 C CNN
F 3 "~" H 6150 5650 50  0001 C CNN
	1    6150 5650
	0    -1   -1   0   
$EndComp
$Comp
L Device:R R7
U 1 1 5DCFF030
P 6150 5250
F 0 "R7" V 6350 5250 50  0000 C CNN
F 1 "806" V 6250 5250 50  0000 C CNN
F 2 "Resistor_SMD:R_0805_2012Metric_Pad1.15x1.40mm_HandSolder" V 6080 5250 50  0001 C CNN
F 3 "~" H 6150 5250 50  0001 C CNN
	1    6150 5250
	0    -1   -1   0   
$EndComp
Wire Wire Line
	5050 5200 5050 5250
Wire Wire Line
	5050 5300 5050 5250
Connection ~ 5050 5250
Wire Wire Line
	4950 5650 4950 5200
Wire Wire Line
	4750 5800 5050 5800
Wire Wire Line
	4750 5200 4750 5800
Wire Wire Line
	5050 5600 5050 5800
Connection ~ 5050 5800
Wire Wire Line
	5050 5800 5200 5800
Wire Wire Line
	6650 5650 6300 5650
Wire Wire Line
	3350 2300 4750 2300
Wire Wire Line
	4750 2300 4750 2600
Connection ~ 3350 2300
Wire Wire Line
	4950 2600 4950 1350
Wire Wire Line
	4950 1350 3350 1350
Connection ~ 3350 1350
Wire Wire Line
	3350 5300 4650 5300
Wire Wire Line
	4650 5300 4650 5200
Connection ~ 3350 5300
Wire Wire Line
	4850 5200 4850 6250
Wire Wire Line
	4850 6250 3350 6250
Connection ~ 3350 6250
Wire Wire Line
	5900 5800 5500 5800
Wire Wire Line
	5050 2150 6000 2150
Wire Wire Line
	6300 2150 7300 2150
Wire Wire Line
	5150 2550 6000 2550
Wire Wire Line
	5050 5250 6000 5250
Wire Wire Line
	4950 5650 6000 5650
$Comp
L Device:L L1
U 1 1 5DA89676
P 2150 1350
F 0 "L1" V 2100 1350 50  0000 C CNN
F 1 "330@100MHz" V 2250 1350 50  0000 C CNN
F 2 "Inductor_SMD:L_0805_2012Metric_Pad1.15x1.40mm_HandSolder" H 2150 1350 50  0001 C CNN
F 3 "~" H 2150 1350 50  0001 C CNN
	1    2150 1350
	0    -1   -1   0   
$EndComp
$Comp
L Device:L L2
U 1 1 5DA8FAD0
P 2150 2300
F 0 "L2" V 2100 2300 50  0000 C CNN
F 1 "330@100MHz" V 2250 2300 50  0000 C CNN
F 2 "Inductor_SMD:L_0805_2012Metric_Pad1.15x1.40mm_HandSolder" H 2150 2300 50  0001 C CNN
F 3 "~" H 2150 2300 50  0001 C CNN
	1    2150 2300
	0    -1   -1   0   
$EndComp
$Comp
L Device:L L3
U 1 1 5DA909E7
P 2150 5300
F 0 "L3" V 2100 5300 50  0000 C CNN
F 1 "330@100MHz" V 2250 5300 50  0000 C CNN
F 2 "Inductor_SMD:L_0805_2012Metric_Pad1.15x1.40mm_HandSolder" H 2150 5300 50  0001 C CNN
F 3 "~" H 2150 5300 50  0001 C CNN
	1    2150 5300
	0    -1   -1   0   
$EndComp
$Comp
L Device:L L4
U 1 1 5DA91844
P 2150 6250
F 0 "L4" V 2100 6250 50  0000 C CNN
F 1 "330@100MHz" V 2250 6250 50  0000 C CNN
F 2 "Inductor_SMD:L_0805_2012Metric_Pad1.15x1.40mm_HandSolder" H 2150 6250 50  0001 C CNN
F 3 "~" H 2150 6250 50  0001 C CNN
	1    2150 6250
	0    -1   -1   0   
$EndComp
Wire Wire Line
	7900 3650 7900 3750
Wire Wire Line
	7900 3750 5900 3750
Wire Wire Line
	5900 3750 5900 5800
NoConn ~ 8000 2750
NoConn ~ 8100 2750
NoConn ~ 8100 3650
$Comp
L NMJ6HCD2:NMJ6HCD2 J1
U 1 1 5EEA9925
P 8100 2750
F 0 "J1" V 8504 2878 50  0000 L CNN
F 1 "NMJ6HCD2" V 8595 2878 50  0000 L CNN
F 2 "NMJ6HCD2:NMJ6HCD2" H 8850 2850 50  0001 L CNN
F 3 "http://www.neutrik.de/zoolu-website/media/download/2890/Strichzeichnung+NMJ6HCD2" H 8850 2750 50  0001 L CNN
F 4 "Phone Connectors STEREO CHROME NOSE" H 8850 2650 50  0001 L CNN "Description"
F 5 "" H 8850 2550 50  0001 L CNN "Height"
F 6 "550-22302" H 8850 2450 50  0001 L CNN "Mouser Part Number"
F 7 "https://www.mouser.com/Search/Refine.aspx?Keyword=550-22302" H 8850 2350 50  0001 L CNN "Mouser Price/Stock"
F 8 "Neutrik" H 8850 2250 50  0001 L CNN "Manufacturer_Name"
F 9 "NMJ6HCD2" H 8850 2150 50  0001 L CNN "Manufacturer_Part_Number"
	1    8100 2750
	0    1    1    0   
$EndComp
$Comp
L RK27112A00CF:RK27112A0-S20-C0-A103 VR1
U 1 1 5EEAE5AF
P 7300 2050
F 0 "VR1" H 7700 2315 50  0000 C CNN
F 1 "RK27112A0-S20-C0-A103" H 7700 2224 50  0000 C CNN
F 2 "RK27112A00CF:RK27112A00CF" H 7950 2150 50  0001 L CNN
F 3 "https://www.alps.com/prod/info/E/PDF/Potentiometer/MetalShaft/RK271/RK271.PDF" H 7950 2050 50  0001 L CNN
F 4 "Potentiometers 27mm DUAL" H 7950 1950 50  0001 L CNN "Description"
F 5 "" H 7950 1850 50  0001 L CNN "Height"
F 6 "688-RK27112AS-103" H 7950 1750 50  0001 L CNN "Mouser Part Number"
F 7 "https://www.mouser.co.uk/ProductDetail/ALPS/RK27112A0-S20-C0-A103?qs=dc2BCqoH2MIIsTkIS33%252BRQ%3D%3D" H 7950 1650 50  0001 L CNN "Mouser Price/Stock"
F 8 "ALPS" H 7950 1550 50  0001 L CNN "Manufacturer_Name"
F 9 "RK27112A0-S20-C0-A103" H 7950 1450 50  0001 L CNN "Manufacturer_Part_Number"
	1    7300 2050
	1    0    0    -1  
$EndComp
Wire Wire Line
	8100 2150 8450 2150
Wire Wire Line
	8450 2550 6650 2550
Wire Wire Line
	8450 2150 8450 2550
Wire Wire Line
	6650 2550 6650 5650
$Comp
L Connector:Conn_01x06_Male J2
U 1 1 5EEB3DE5
P 10150 1800
F 0 "J2" H 10122 1728 50  0000 R CNN
F 1 "Conn_01x06_Male" H 10122 1773 50  0001 R CNN
F 2 "Connector_PinHeader_2.54mm:PinHeader_1x06_P2.54mm_Vertical" H 10150 1800 50  0001 C CNN
F 3 "~" H 10150 1800 50  0001 C CNN
	1    10150 1800
	-1   0    0    1   
$EndComp
Text GLabel 9950 1500 0    50   Input ~ 0
R_AGND
Text GLabel 9950 1700 0    50   Input ~ 0
R_AGND
Text GLabel 9950 1800 0    50   Input ~ 0
L_AGND
Text GLabel 9950 2000 0    50   Input ~ 0
L_AGND
Text GLabel 8100 2250 2    50   Input ~ 0
R_AGND
Text GLabel 7300 2250 0    50   Input ~ 0
L_AGND
Text GLabel 9950 1900 0    50   Input ~ 0
LEFT_IN
Text GLabel 9950 1600 0    50   Input ~ 0
RIGHT_IN
Text GLabel 8100 2050 2    50   Input ~ 0
RIGHT_IN
Text GLabel 7300 2050 0    50   Input ~ 0
LEFT_IN
$Comp
L Connector:Conn_01x04_Male J3
U 1 1 5EECC12F
P 10150 2650
F 0 "J3" H 10122 2578 50  0000 R CNN
F 1 "Conn_01x04_Male" H 10258 2840 50  0001 C CNN
F 2 "Connector_PinHeader_2.54mm:PinHeader_1x04_P2.54mm_Vertical" H 10150 2650 50  0001 C CNN
F 3 "~" H 10150 2650 50  0001 C CNN
	1    10150 2650
	-1   0    0    1   
$EndComp
$Comp
L Connector:Conn_01x04_Male J4
U 1 1 5EECC79E
P 10150 3400
F 0 "J4" H 10122 3328 50  0000 R CNN
F 1 "Conn_01x04_Male" H 10258 3590 50  0001 C CNN
F 2 "Connector_PinHeader_2.54mm:PinHeader_1x04_P2.54mm_Vertical" H 10150 3400 50  0001 C CNN
F 3 "~" H 10150 3400 50  0001 C CNN
	1    10150 3400
	-1   0    0    1   
$EndComp
Text GLabel 9950 2750 0    50   Input ~ 0
RGND+
Text GLabel 9950 2450 0    50   Input ~ 0
RVCC-
Text GLabel 9950 2650 0    50   Input ~ 0
RVCC+
Text GLabel 9950 2550 0    50   Input ~ 0
RGND-
Text GLabel 9950 3200 0    50   Input ~ 0
LVCC-
Text GLabel 9950 3300 0    50   Input ~ 0
LGND-
Text GLabel 9950 3400 0    50   Input ~ 0
LVCC+
Text GLabel 9950 3500 0    50   Input ~ 0
LGND+
Text GLabel 2000 5800 0    50   Input ~ 0
LGND-
Text GLabel 2000 6750 0    50   Input ~ 0
LGND+
Text GLabel 2000 1850 0    50   Input ~ 0
RGND+
Text GLabel 2000 2800 0    50   Input ~ 0
RGND-
Wire Wire Line
	2450 1850 2000 1850
Connection ~ 2450 1850
Wire Wire Line
	2450 2800 2000 2800
Connection ~ 2450 2800
Wire Wire Line
	2450 5800 2000 5800
Connection ~ 2450 5800
Wire Wire Line
	2450 6750 2000 6750
Connection ~ 2450 6750
Text GLabel 6300 5250 2    50   Input ~ 0
LGND-
Text GLabel 6300 2550 2    50   Input ~ 0
RGND-
Text Notes 8000 4100 0    50   ~ 0
Tip == left\nRing == Right\nSleeve == Ground
Text GLabel 8200 3750 2    50   Input ~ 0
LGND-
Wire Wire Line
	8200 3750 8000 3750
Wire Wire Line
	8000 3750 8000 3650
Wire Wire Line
	7900 2750 7900 2700
Wire Wire Line
	7900 2700 5900 2700
Wire Wire Line
	5900 2700 5900 1950
Wire Wire Line
	5900 1950 5600 1950
Wire Wire Line
	4650 2500 4650 2600
Text GLabel 4100 2700 0    50   Input ~ 0
LGND-
Text GLabel 4100 2600 0    50   Input ~ 0
LGND+
Text GLabel 4100 2400 0    50   Input ~ 0
RGND+
Text GLabel 4100 2500 0    50   Input ~ 0
RGND-
$Comp
L TPA6120A2:TPA6120A2DWPR U1
U 1 1 5EE93AA5
P 4650 5200
F 0 "U1" V 6003 3972 60  0000 R CNN
F 1 "TPA6120A2DWPR" V 5897 3972 60  0000 R CNN
F 2 "Package_SO:Infineon_PG-DSO-20-30" H 5950 5440 60  0001 C CNN
F 3 "" H 4650 5200 60  0000 C CNN
	1    4650 5200
	0    -1   -1   0   
$EndComp
Text GLabel 4100 2800 0    50   Input ~ 0
L_AGND
Text GLabel 4100 2900 0    50   Input ~ 0
R_AGND
Wire Wire Line
	4650 2500 4200 2500
Wire Wire Line
	4100 2400 4200 2400
Wire Wire Line
	4200 2400 4200 2500
Connection ~ 4200 2500
Wire Wire Line
	4200 2500 4100 2500
Wire Wire Line
	4200 2500 4200 2600
Wire Wire Line
	4200 2900 4100 2900
Wire Wire Line
	4100 2600 4200 2600
Connection ~ 4200 2600
Wire Wire Line
	4200 2600 4200 2700
Wire Wire Line
	4100 2700 4200 2700
Connection ~ 4200 2700
Wire Wire Line
	4200 2700 4200 2800
Wire Wire Line
	4100 2800 4200 2800
Connection ~ 4200 2800
Wire Wire Line
	4200 2800 4200 2900
$EndSCHEMATC
