(module "70053K" (layer F.Cu)
  (descr "70053K")
  (tags "Transformer")
  (fp_text reference T** (at -0.466 -0.317) (layer F.SilkS)
    (effects (font (size 1.27 1.27) (thickness 0.254)))
  )
  (fp_text user %R (at -0.466 -0.317) (layer F.Fab)
    (effects (font (size 1.27 1.27) (thickness 0.254)))
  )
  (fp_text value "70053K" (at -0.466 -0.317) (layer F.SilkS) hide
    (effects (font (size 1.27 1.27) (thickness 0.254)))
  )
  (fp_line (start -30 -30) (end 30 -30) (layer F.Fab) (width 0.254))
  (fp_line (start 30 -30) (end 30 30) (layer F.Fab) (width 0.254))
  (fp_line (start 30 30) (end -30 30) (layer F.Fab) (width 0.254))
  (fp_line (start -30 30) (end -30 -30) (layer F.Fab) (width 0.254))
  (fp_line (start -30 30) (end -30 -30) (layer F.SilkS) (width 0.254))
  (fp_line (start -30 -30) (end 30 -30) (layer F.SilkS) (width 0.254))
  (fp_line (start 30 -30) (end 30 30) (layer F.SilkS) (width 0.254))
  (fp_line (start 30 30) (end -30 30) (layer F.SilkS) (width 0.254))
  (fp_circle (center -17.704 -31.582) (end -17.704 -31.367) (layer F.SilkS) (width 0.4))
  (pad 1 thru_hole circle (at -17.78 -27.94) (size 2 2) (drill 1.32) (layers *.Cu *.Mask))
  (pad 2 thru_hole circle (at -22.86 -27.94) (size 2 2) (drill 1.32) (layers *.Cu *.Mask))
  (pad 3 thru_hole circle (at -27.94 -25.4) (size 2 2) (drill 1.32) (layers *.Cu *.Mask))
  (pad 4 thru_hole circle (at -27.94 -20.32) (size 2 2) (drill 1.32) (layers *.Cu *.Mask))
  (pad 5 thru_hole circle (at -27.94 20.32) (size 2 2) (drill 1.32) (layers *.Cu *.Mask))
  (pad 6 thru_hole circle (at -27.94 25.4) (size 2 2) (drill 1.32) (layers *.Cu *.Mask))
  (pad 7 thru_hole circle (at -22.86 27.94) (size 2 2) (drill 1.32) (layers *.Cu *.Mask))
  (pad 8 thru_hole circle (at -17.78 27.94) (size 2 2) (drill 1.32) (layers *.Cu *.Mask))
  (pad 9 thru_hole circle (at 17.78 27.94) (size 2 2) (drill 1.32) (layers *.Cu *.Mask))
  (pad 10 thru_hole circle (at 22.86 27.94) (size 2 2) (drill 1.32) (layers *.Cu *.Mask))
  (pad 11 thru_hole circle (at 27.94 27.94) (size 2 2) (drill 1.32) (layers *.Cu *.Mask))
  (pad 12 thru_hole circle (at 27.94 22.86) (size 2 2) (drill 1.32) (layers *.Cu *.Mask))
  (pad 13 thru_hole circle (at 27.94 -22.86) (size 2 2) (drill 1.32) (layers *.Cu *.Mask))
  (pad 14 thru_hole circle (at 27.94 -27.94) (size 2 2) (drill 1.32) (layers *.Cu *.Mask))
  (pad 15 thru_hole circle (at 22.86 -27.94) (size 2 2) (drill 1.32) (layers *.Cu *.Mask))
  (pad 16 thru_hole circle (at 17.78 -27.94) (size 2 2) (drill 1.32) (layers *.Cu *.Mask))
  (pad 17 thru_hole circle (at 27.94 17.78) (size 2 2) (drill 1.32) (layers *.Cu *.Mask))
  (pad 18 thru_hole circle (at 27.94 -17.78) (size 2 2) (drill 1.32) (layers *.Cu *.Mask))
  (pad 19 thru_hole circle (at -27.94 -15.24) (size 2 2) (drill 1.32) (layers *.Cu *.Mask))
  (pad 20 thru_hole circle (at -27.94 15.24) (size 2 2) (drill 1.32) (layers *.Cu *.Mask))
  (pad 21 thru_hole circle (at 0 0) (size 6 6) (drill 4.2) (layers *.Cu *.Mask))
  (model 70053K.stp
    (at (xyz 0 0 0))
    (scale (xyz 1 1 1))
    (rotate (xyz 0 0 0))
  )
)
