PCBNEW-LibModule-V1  2020-05-04 16:08:17
# encoding utf-8
Units mm
$INDEX
70053K
$EndINDEX
$MODULE 70053K
Po 0 0 0 15 5eb02fe1 00000000 ~~
Li 70053K
Cd 70053K
Kw Transformer
Sc 0
At STD
AR 
Op 0 0 0
T0 -0.466 -0.317 1.27 1.27 0 0.254 N V 21 N "T**"
T1 -0.466 -0.317 1.27 1.27 0 0.254 N I 21 N "70053K"
DS -30 -30 30 -30 0.254 24
DS 30 -30 30 30 0.254 24
DS 30 30 -30 30 0.254 24
DS -30 30 -30 -30 0.254 24
DS -30 30 -30 -30 0.254 21
DS -30 -30 30 -30 0.254 21
DS 30 -30 30 30 0.254 21
DS 30 30 -30 30 0.254 21
DC -17.704 -31.582 -17.919 -31.582 0.254 21
$PAD
Po -17.78 -27.94
Sh "1" C 2 2 0 0 900
Dr 1.32 0 0
At STD N 00E0FFFF
Ne 0 ""
$EndPAD
$PAD
Po -22.86 -27.94
Sh "2" C 2 2 0 0 900
Dr 1.32 0 0
At STD N 00E0FFFF
Ne 0 ""
$EndPAD
$PAD
Po -27.94 -25.4
Sh "3" C 2 2 0 0 900
Dr 1.32 0 0
At STD N 00E0FFFF
Ne 0 ""
$EndPAD
$PAD
Po -27.94 -20.32
Sh "4" C 2 2 0 0 900
Dr 1.32 0 0
At STD N 00E0FFFF
Ne 0 ""
$EndPAD
$PAD
Po -27.94 20.32
Sh "5" C 2 2 0 0 900
Dr 1.32 0 0
At STD N 00E0FFFF
Ne 0 ""
$EndPAD
$PAD
Po -27.94 25.4
Sh "6" C 2 2 0 0 900
Dr 1.32 0 0
At STD N 00E0FFFF
Ne 0 ""
$EndPAD
$PAD
Po -22.86 27.94
Sh "7" C 2 2 0 0 900
Dr 1.32 0 0
At STD N 00E0FFFF
Ne 0 ""
$EndPAD
$PAD
Po -17.78 27.94
Sh "8" C 2 2 0 0 900
Dr 1.32 0 0
At STD N 00E0FFFF
Ne 0 ""
$EndPAD
$PAD
Po 17.78 27.94
Sh "9" C 2 2 0 0 900
Dr 1.32 0 0
At STD N 00E0FFFF
Ne 0 ""
$EndPAD
$PAD
Po 22.86 27.94
Sh "10" C 2 2 0 0 900
Dr 1.32 0 0
At STD N 00E0FFFF
Ne 0 ""
$EndPAD
$PAD
Po 27.94 27.94
Sh "11" C 2 2 0 0 900
Dr 1.32 0 0
At STD N 00E0FFFF
Ne 0 ""
$EndPAD
$PAD
Po 27.94 22.86
Sh "12" C 2 2 0 0 900
Dr 1.32 0 0
At STD N 00E0FFFF
Ne 0 ""
$EndPAD
$PAD
Po 27.94 -22.86
Sh "13" C 2 2 0 0 900
Dr 1.32 0 0
At STD N 00E0FFFF
Ne 0 ""
$EndPAD
$PAD
Po 27.94 -27.94
Sh "14" C 2 2 0 0 900
Dr 1.32 0 0
At STD N 00E0FFFF
Ne 0 ""
$EndPAD
$PAD
Po 22.86 -27.94
Sh "15" C 2 2 0 0 900
Dr 1.32 0 0
At STD N 00E0FFFF
Ne 0 ""
$EndPAD
$PAD
Po 17.78 -27.94
Sh "16" C 2 2 0 0 900
Dr 1.32 0 0
At STD N 00E0FFFF
Ne 0 ""
$EndPAD
$PAD
Po 27.94 17.78
Sh "17" C 2 2 0 0 900
Dr 1.32 0 0
At STD N 00E0FFFF
Ne 0 ""
$EndPAD
$PAD
Po 27.94 -17.78
Sh "18" C 2 2 0 0 900
Dr 1.32 0 0
At STD N 00E0FFFF
Ne 0 ""
$EndPAD
$PAD
Po -27.94 -15.24
Sh "19" C 2 2 0 0 900
Dr 1.32 0 0
At STD N 00E0FFFF
Ne 0 ""
$EndPAD
$PAD
Po -27.94 15.24
Sh "20" C 2 2 0 0 900
Dr 1.32 0 0
At STD N 00E0FFFF
Ne 0 ""
$EndPAD
$PAD
Po 0 0
Sh "21" C 6 6 0 0 900
Dr 4.2 0 0
At STD N 00E0FFFF
Ne 0 ""
$EndPAD
$EndMODULE 70053K
$EndLIBRARY
