(module LT3094EMSE (layer F.Cu)
  (fp_text reference REF** (at 0 0) (layer F.SilkS)
    (effects (font (size 1 1) (thickness .15)))
  )
  (fp_text value MSOP12_MSE (at 0 0) (layer F.SilkS)
    (effects (font (size 1 1) (thickness .15)))
  )
  (fp_text user "Copyright 2016 Accelerated Designs. All rights reserved." (at 0 0) (layer Cmts.User)
    (effects (font (size .127 .127) (thickness .002)))
  )
  (fp_text user "*" (at -2.438999 -3.1988) (layer F.SilkS)
    (effects (font (size 1 1) (thickness .15)))
  )
  (fp_text user "*" (at -1.119 -1.943299) (layer F.Fab)
    (effects (font (size 1 1) (thickness .15)))
  )
  (fp_line (start -1.5 -1.435001) (end -1.5 -1.815001) (layer F.Fab) (width .1524))
  (fp_line (start -1.5 -1.815001) (end -2.525999 -1.815001) (layer F.Fab) (width .1524))
  (fp_line (start -2.525999 -1.815001) (end -2.525999 -1.435001) (layer F.Fab) (width .1524))
  (fp_line (start -2.525999 -1.435001) (end -1.5 -1.435001) (layer F.Fab) (width .1524))
  (fp_line (start -1.5 -.785001) (end -1.5 -1.165001) (layer F.Fab) (width .1524))
  (fp_line (start -1.5 -1.165001) (end -2.525999 -1.165001) (layer F.Fab) (width .1524))
  (fp_line (start -2.525999 -1.165001) (end -2.525999 -.785001) (layer F.Fab) (width .1524))
  (fp_line (start -2.525999 -.785001) (end -1.5 -.785001) (layer F.Fab) (width .1524))
  (fp_line (start -1.5 -.135001) (end -1.5 -.515001) (layer F.Fab) (width .1524))
  (fp_line (start -1.5 -.515001) (end -2.525999 -.515001) (layer F.Fab) (width .1524))
  (fp_line (start -2.525999 -.515001) (end -2.525999 -.135001) (layer F.Fab) (width .1524))
  (fp_line (start -2.525999 -.135001) (end -1.5 -.135001) (layer F.Fab) (width .1524))
  (fp_line (start -1.5 .514999) (end -1.5 .134999) (layer F.Fab) (width .1524))
  (fp_line (start -1.5 .134999) (end -2.525999 .134999) (layer F.Fab) (width .1524))
  (fp_line (start -2.525999 .134999) (end -2.525999 .514999) (layer F.Fab) (width .1524))
  (fp_line (start -2.525999 .514999) (end -1.5 .514999) (layer F.Fab) (width .1524))
  (fp_line (start -1.5 1.164999) (end -1.5 .784999) (layer F.Fab) (width .1524))
  (fp_line (start -1.5 .784999) (end -2.525999 .784999) (layer F.Fab) (width .1524))
  (fp_line (start -2.525999 .784999) (end -2.525999 1.164999) (layer F.Fab) (width .1524))
  (fp_line (start -2.525999 1.164999) (end -1.5 1.164999) (layer F.Fab) (width .1524))
  (fp_line (start -1.5 1.814999) (end -1.5 1.434999) (layer F.Fab) (width .1524))
  (fp_line (start -1.5 1.434999) (end -2.525999 1.434999) (layer F.Fab) (width .1524))
  (fp_line (start -2.525999 1.434999) (end -2.525999 1.814999) (layer F.Fab) (width .1524))
  (fp_line (start -2.525999 1.814999) (end -1.5 1.814999) (layer F.Fab) (width .1524))
  (fp_line (start 1.5 1.435001) (end 1.5 1.815001) (layer F.Fab) (width .1524))
  (fp_line (start 1.5 1.815001) (end 2.525999 1.815001) (layer F.Fab) (width .1524))
  (fp_line (start 2.525999 1.815001) (end 2.525999 1.435001) (layer F.Fab) (width .1524))
  (fp_line (start 2.525999 1.435001) (end 1.5 1.435001) (layer F.Fab) (width .1524))
  (fp_line (start 1.5 .785001) (end 1.5 1.165001) (layer F.Fab) (width .1524))
  (fp_line (start 1.5 1.165001) (end 2.525999 1.165001) (layer F.Fab) (width .1524))
  (fp_line (start 2.525999 1.165001) (end 2.525999 .785001) (layer F.Fab) (width .1524))
  (fp_line (start 2.525999 .785001) (end 1.5 .785001) (layer F.Fab) (width .1524))
  (fp_line (start 1.5 .135001) (end 1.5 .515001) (layer F.Fab) (width .1524))
  (fp_line (start 1.5 .515001) (end 2.525999 .515001) (layer F.Fab) (width .1524))
  (fp_line (start 2.525999 .515001) (end 2.525999 .135001) (layer F.Fab) (width .1524))
  (fp_line (start 2.525999 .135001) (end 1.5 .135001) (layer F.Fab) (width .1524))
  (fp_line (start 1.5 -.514999) (end 1.5 -.134999) (layer F.Fab) (width .1524))
  (fp_line (start 1.5 -.134999) (end 2.525999 -.134999) (layer F.Fab) (width .1524))
  (fp_line (start 2.525999 -.134999) (end 2.525999 -.514999) (layer F.Fab) (width .1524))
  (fp_line (start 2.525999 -.514999) (end 1.5 -.514999) (layer F.Fab) (width .1524))
  (fp_line (start 1.5 -1.164999) (end 1.5 -.784999) (layer F.Fab) (width .1524))
  (fp_line (start 1.5 -.784999) (end 2.525999 -.784999) (layer F.Fab) (width .1524))
  (fp_line (start 2.525999 -.784999) (end 2.525999 -1.164999) (layer F.Fab) (width .1524))
  (fp_line (start 2.525999 -1.164999) (end 1.5 -1.164999) (layer F.Fab) (width .1524))
  (fp_line (start 1.5 -1.814999) (end 1.5 -1.434999) (layer F.Fab) (width .1524))
  (fp_line (start 1.5 -1.434999) (end 2.525999 -1.434999) (layer F.Fab) (width .1524))
  (fp_line (start 2.525999 -1.434999) (end 2.525999 -1.814999) (layer F.Fab) (width .1524))
  (fp_line (start 2.525999 -1.814999) (end 1.5 -1.814999) (layer F.Fab) (width .1524))
  (fp_line (start -1.357947 2.146499) (end 1.357941 2.146499) (layer F.SilkS) (width .1524))
  (fp_line (start 1.357947 -2.146499) (end -1.357941 -2.146499) (layer F.SilkS) (width .1524))
  (fp_line (start -1.5 2.019499) (end 1.5 2.019499) (layer F.Fab) (width .1524))
  (fp_line (start 1.5 2.019499) (end 1.5 -2.019499) (layer F.Fab) (width .1524))
  (fp_line (start 1.5 -2.019499) (end -1.5 -2.019499) (layer F.Fab) (width .1524))
  (fp_line (start -1.5 -2.019499) (end -1.5 2.019499) (layer F.Fab) (width .1524))
  (fp_line (start 3.3896 -.515498) (end 3.3896 -.134498) (layer F.SilkS) (width .1524))
  (fp_line (start 3.3896 -.134498) (end 3.1356 -.134498) (layer F.SilkS) (width .1524))
  (fp_line (start 3.1356 -.134498) (end 3.1356 -.515498) (layer F.SilkS) (width .1524))
  (fp_line (start 3.1356 -.515498) (end 3.3896 -.515498) (layer F.SilkS) (width .1524))
  (fp_line (start -.7255 -1.3225) (end -.7255 -.1) (layer Dwgs.User) (width .1524))
  (fp_line (start -.7255 -.1) (end .7255 -.1) (layer Dwgs.User) (width .1524))
  (fp_line (start .7255 -.1) (end .7255 -1.3225) (layer Dwgs.User) (width .1524))
  (fp_line (start .7255 -1.3225) (end -.7255 -1.3225) (layer Dwgs.User) (width .1524))
  (fp_line (start -.7255 .1) (end -.7255 1.3225) (layer Dwgs.User) (width .1524))
  (fp_line (start -.7255 1.3225) (end .7255 1.3225) (layer Dwgs.User) (width .1524))
  (fp_line (start .7255 1.3225) (end .7255 .1) (layer Dwgs.User) (width .1524))
  (fp_line (start .7255 .1) (end -.7255 .1) (layer Dwgs.User) (width .1524))
  (fp_line (start -3.135599 2.0944) (end -3.135599 -2.0944) (layer F.CrtYd) (width .1524))
  (fp_line (start -3.135599 -2.0944) (end -1.754 -2.0944) (layer F.CrtYd) (width .1524))
  (fp_line (start -1.754 -2.0944) (end -1.754 -2.273499) (layer F.CrtYd) (width .1524))
  (fp_line (start -1.754 -2.273499) (end 1.754 -2.273499) (layer F.CrtYd) (width .1524))
  (fp_line (start 1.754 -2.273499) (end 1.754 -2.0944) (layer F.CrtYd) (width .1524))
  (fp_line (start 1.754 -2.0944) (end 3.135599 -2.0944) (layer F.CrtYd) (width .1524))
  (fp_line (start 3.135599 -2.0944) (end 3.135599 2.0944) (layer F.CrtYd) (width .1524))
  (fp_line (start 3.135599 2.0944) (end 1.754 2.0944) (layer F.CrtYd) (width .1524))
  (fp_line (start 1.754 2.0944) (end 1.754 2.273499) (layer F.CrtYd) (width .1524))
  (fp_line (start 1.754 2.273499) (end -1.754 2.273499) (layer F.CrtYd) (width .1524))
  (fp_line (start -1.754 2.273499) (end -1.754 2.0944) (layer F.CrtYd) (width .1524))
  (fp_line (start -1.754 2.0944) (end -3.135599 2.0944) (layer F.CrtYd) (width .1524))
  (fp_arc (start 0 -2.019499) (end .3048 -2.019499) (angle 180)(layer F.Fab) (width .1524))
  (pad 1 smd rect (at -2.184999 -1.625001) (size 1.3932 .4308) (layers F.Cu F.Paste F.Mask))
  (pad 2 smd rect (at -2.184999 -.974999) (size 1.3932 .4308) (layers F.Cu F.Paste F.Mask))
  (pad 3 smd rect (at -2.184999 -.325001) (size 1.3932 .4308) (layers F.Cu F.Paste F.Mask))
  (pad 4 smd rect (at -2.184999 .324998) (size 1.3932 .4308) (layers F.Cu F.Paste F.Mask))
  (pad 5 smd rect (at -2.184999 .974999) (size 1.3932 .4308) (layers F.Cu F.Paste F.Mask))
  (pad 6 smd rect (at -2.184999 1.624998) (size 1.3932 .4308) (layers F.Cu F.Paste F.Mask))
  (pad 7 smd rect (at 2.184999 1.625001) (size 1.3932 .4308) (layers F.Cu F.Paste F.Mask))
  (pad 8 smd rect (at 2.184999 .974999) (size 1.3932 .4308) (layers F.Cu F.Paste F.Mask))
  (pad 9 smd rect (at 2.184999 .325001) (size 1.3932 .4308) (layers F.Cu F.Paste F.Mask))
  (pad 10 smd rect (at 2.184999 -.324998) (size 1.3932 .4308) (layers F.Cu F.Paste F.Mask))
  (pad 11 smd rect (at 2.184999 -.974999) (size 1.3932 .4308) (layers F.Cu F.Paste F.Mask))
  (pad 12 smd rect (at 2.184999 -1.624998) (size 1.3932 .4308) (layers F.Cu F.Paste F.Mask))
  (pad EPAD smd rect (at 0 0) (size 1.651 2.845001) (layers F.Cu F.Paste F.Mask))
)
