(module TPA6120A2DWPR (layer F.Cu)
  (fp_text reference REF** (at 0 0) (layer F.SilkS)
    (effects (font (size 1 1) (thickness .15)))
  )
  (fp_text value DWP20_3P81X2P79 (at 0 0) (layer F.SilkS)
    (effects (font (size 1 1) (thickness .15)))
  )
  (fp_text user "Copyright 2016 Accelerated Designs. All rights reserved." (at 0 0) (layer Cmts.User)
    (effects (font (size .127 .127) (thickness .002)))
  )
  (fp_text user "*" (at -4.9403 -7.4168) (layer F.SilkS)
    (effects (font (size 1 1) (thickness .15)))
  )
  (fp_text user "*" (at -3.4163 -6.4008) (layer F.Fab)
    (effects (font (size 1 1) (thickness .15)))
  )
  (fp_line (start -3.7973 -5.461) (end -3.7973 -5.969) (layer F.Fab) (width .1524))
  (fp_line (start -3.7973 -5.969) (end -5.3213 -5.969) (layer F.Fab) (width .1524))
  (fp_line (start -5.3213 -5.969) (end -5.3213 -5.461) (layer F.Fab) (width .1524))
  (fp_line (start -5.3213 -5.461) (end -3.7973 -5.461) (layer F.Fab) (width .1524))
  (fp_line (start -3.7973 -4.191) (end -3.7973 -4.699) (layer F.Fab) (width .1524))
  (fp_line (start -3.7973 -4.699) (end -5.3213 -4.699) (layer F.Fab) (width .1524))
  (fp_line (start -5.3213 -4.699) (end -5.3213 -4.191) (layer F.Fab) (width .1524))
  (fp_line (start -5.3213 -4.191) (end -3.7973 -4.191) (layer F.Fab) (width .1524))
  (fp_line (start -3.7973 -2.921) (end -3.7973 -3.429) (layer F.Fab) (width .1524))
  (fp_line (start -3.7973 -3.429) (end -5.3213 -3.429) (layer F.Fab) (width .1524))
  (fp_line (start -5.3213 -3.429) (end -5.3213 -2.921) (layer F.Fab) (width .1524))
  (fp_line (start -5.3213 -2.921) (end -3.7973 -2.921) (layer F.Fab) (width .1524))
  (fp_line (start -3.7973 -1.651) (end -3.7973 -2.159) (layer F.Fab) (width .1524))
  (fp_line (start -3.7973 -2.159) (end -5.3213 -2.159) (layer F.Fab) (width .1524))
  (fp_line (start -5.3213 -2.159) (end -5.3213 -1.651) (layer F.Fab) (width .1524))
  (fp_line (start -5.3213 -1.651) (end -3.7973 -1.651) (layer F.Fab) (width .1524))
  (fp_line (start -3.7973 -.381) (end -3.7973 -.889) (layer F.Fab) (width .1524))
  (fp_line (start -3.7973 -.889) (end -5.3213 -.889) (layer F.Fab) (width .1524))
  (fp_line (start -5.3213 -.889) (end -5.3213 -.381) (layer F.Fab) (width .1524))
  (fp_line (start -5.3213 -.381) (end -3.7973 -.381) (layer F.Fab) (width .1524))
  (fp_line (start -3.7973 .889) (end -3.7973 .381) (layer F.Fab) (width .1524))
  (fp_line (start -3.7973 .381) (end -5.3213 .381) (layer F.Fab) (width .1524))
  (fp_line (start -5.3213 .381) (end -5.3213 .889) (layer F.Fab) (width .1524))
  (fp_line (start -5.3213 .889) (end -3.7973 .889) (layer F.Fab) (width .1524))
  (fp_line (start -3.7973 2.159) (end -3.7973 1.651) (layer F.Fab) (width .1524))
  (fp_line (start -3.7973 1.651) (end -5.3213 1.651) (layer F.Fab) (width .1524))
  (fp_line (start -5.3213 1.651) (end -5.3213 2.159) (layer F.Fab) (width .1524))
  (fp_line (start -5.3213 2.159) (end -3.7973 2.159) (layer F.Fab) (width .1524))
  (fp_line (start -3.7973 3.429) (end -3.7973 2.921) (layer F.Fab) (width .1524))
  (fp_line (start -3.7973 2.921) (end -5.3213 2.921) (layer F.Fab) (width .1524))
  (fp_line (start -5.3213 2.921) (end -5.3213 3.429) (layer F.Fab) (width .1524))
  (fp_line (start -5.3213 3.429) (end -3.7973 3.429) (layer F.Fab) (width .1524))
  (fp_line (start -3.7973 4.699) (end -3.7973 4.191) (layer F.Fab) (width .1524))
  (fp_line (start -3.7973 4.191) (end -5.3213 4.191) (layer F.Fab) (width .1524))
  (fp_line (start -5.3213 4.191) (end -5.3213 4.699) (layer F.Fab) (width .1524))
  (fp_line (start -5.3213 4.699) (end -3.7973 4.699) (layer F.Fab) (width .1524))
  (fp_line (start -3.7973 5.969) (end -3.7973 5.461) (layer F.Fab) (width .1524))
  (fp_line (start -3.7973 5.461) (end -5.3213 5.461) (layer F.Fab) (width .1524))
  (fp_line (start -5.3213 5.461) (end -5.3213 5.969) (layer F.Fab) (width .1524))
  (fp_line (start -5.3213 5.969) (end -3.7973 5.969) (layer F.Fab) (width .1524))
  (fp_line (start 3.7973 5.461) (end 3.7973 5.969) (layer F.Fab) (width .1524))
  (fp_line (start 3.7973 5.969) (end 5.3213 5.969) (layer F.Fab) (width .1524))
  (fp_line (start 5.3213 5.969) (end 5.3213 5.461) (layer F.Fab) (width .1524))
  (fp_line (start 5.3213 5.461) (end 3.7973 5.461) (layer F.Fab) (width .1524))
  (fp_line (start 3.7973 4.191) (end 3.7973 4.699) (layer F.Fab) (width .1524))
  (fp_line (start 3.7973 4.699) (end 5.3213 4.699) (layer F.Fab) (width .1524))
  (fp_line (start 5.3213 4.699) (end 5.3213 4.191) (layer F.Fab) (width .1524))
  (fp_line (start 5.3213 4.191) (end 3.7973 4.191) (layer F.Fab) (width .1524))
  (fp_line (start 3.7973 2.921) (end 3.7973 3.429) (layer F.Fab) (width .1524))
  (fp_line (start 3.7973 3.429) (end 5.3213 3.429) (layer F.Fab) (width .1524))
  (fp_line (start 5.3213 3.429) (end 5.3213 2.921) (layer F.Fab) (width .1524))
  (fp_line (start 5.3213 2.921) (end 3.7973 2.921) (layer F.Fab) (width .1524))
  (fp_line (start 3.7973 1.651) (end 3.7973 2.159) (layer F.Fab) (width .1524))
  (fp_line (start 3.7973 2.159) (end 5.3213 2.159) (layer F.Fab) (width .1524))
  (fp_line (start 5.3213 2.159) (end 5.3213 1.651) (layer F.Fab) (width .1524))
  (fp_line (start 5.3213 1.651) (end 3.7973 1.651) (layer F.Fab) (width .1524))
  (fp_line (start 3.7973 .381) (end 3.7973 .889) (layer F.Fab) (width .1524))
  (fp_line (start 3.7973 .889) (end 5.3213 .889) (layer F.Fab) (width .1524))
  (fp_line (start 5.3213 .889) (end 5.3213 .381) (layer F.Fab) (width .1524))
  (fp_line (start 5.3213 .381) (end 3.7973 .381) (layer F.Fab) (width .1524))
  (fp_line (start 3.7973 -.889) (end 3.7973 -.381) (layer F.Fab) (width .1524))
  (fp_line (start 3.7973 -.381) (end 5.3213 -.381) (layer F.Fab) (width .1524))
  (fp_line (start 5.3213 -.381) (end 5.3213 -.889) (layer F.Fab) (width .1524))
  (fp_line (start 5.3213 -.889) (end 3.7973 -.889) (layer F.Fab) (width .1524))
  (fp_line (start 3.7973 -2.159) (end 3.7973 -1.651) (layer F.Fab) (width .1524))
  (fp_line (start 3.7973 -1.651) (end 5.3213 -1.651) (layer F.Fab) (width .1524))
  (fp_line (start 5.3213 -1.651) (end 5.3213 -2.159) (layer F.Fab) (width .1524))
  (fp_line (start 5.3213 -2.159) (end 3.7973 -2.159) (layer F.Fab) (width .1524))
  (fp_line (start 3.7973 -3.429) (end 3.7973 -2.921) (layer F.Fab) (width .1524))
  (fp_line (start 3.7973 -2.921) (end 5.3213 -2.921) (layer F.Fab) (width .1524))
  (fp_line (start 5.3213 -2.921) (end 5.3213 -3.429) (layer F.Fab) (width .1524))
  (fp_line (start 5.3213 -3.429) (end 3.7973 -3.429) (layer F.Fab) (width .1524))
  (fp_line (start 3.7973 -4.699) (end 3.7973 -4.191) (layer F.Fab) (width .1524))
  (fp_line (start 3.7973 -4.191) (end 5.3213 -4.191) (layer F.Fab) (width .1524))
  (fp_line (start 5.3213 -4.191) (end 5.3213 -4.699) (layer F.Fab) (width .1524))
  (fp_line (start 5.3213 -4.699) (end 3.7973 -4.699) (layer F.Fab) (width .1524))
  (fp_line (start 3.7973 -5.969) (end 3.7973 -5.461) (layer F.Fab) (width .1524))
  (fp_line (start 3.7973 -5.461) (end 5.3213 -5.461) (layer F.Fab) (width .1524))
  (fp_line (start 5.3213 -5.461) (end 5.3213 -5.969) (layer F.Fab) (width .1524))
  (fp_line (start 5.3213 -5.969) (end 3.7973 -5.969) (layer F.Fab) (width .1524))
  (fp_line (start -3.9243 6.604) (end 3.9243 6.604) (layer F.SilkS) (width .1524))
  (fp_line (start 3.9243 6.604) (end 3.9243 6.32714) (layer F.SilkS) (width .1524))
  (fp_line (start 3.9243 -6.604) (end -3.9243 -6.604) (layer F.SilkS) (width .1524))
  (fp_line (start -3.9243 -6.604) (end -3.9243 -6.32714) (layer F.SilkS) (width .1524))
  (fp_line (start -3.7973 6.477) (end 3.7973 6.477) (layer F.Fab) (width .1524))
  (fp_line (start 3.7973 6.477) (end 3.7973 -6.477) (layer F.Fab) (width .1524))
  (fp_line (start 3.7973 -6.477) (end -3.7973 -6.477) (layer F.Fab) (width .1524))
  (fp_line (start -3.7973 -6.477) (end -3.7973 6.477) (layer F.Fab) (width .1524))
  (fp_line (start .3048 -6.477) (end .3048 -6.1722) (layer F.Fab) (width .1524))
  (fp_line (start .3048 -6.1722) (end -.3048 -6.1722) (layer F.Fab) (width .1524))
  (fp_line (start -.3048 -6.1722) (end -.3048 -6.477) (layer F.Fab) (width .1524))
  (fp_line (start -3.9243 6.32714) (end -3.9243 6.604) (layer F.SilkS) (width .1524))
  (fp_line (start 3.9243 -6.32714) (end 3.9243 -6.604) (layer F.SilkS) (width .1524))
  (fp_line (start -6.1849 5.5245) (end -6.1849 5.9055) (layer F.SilkS) (width .1524))
  (fp_line (start -6.1849 5.9055) (end -5.9309 5.9055) (layer F.SilkS) (width .1524))
  (fp_line (start -5.9309 5.9055) (end -5.9309 5.5245) (layer F.SilkS) (width .1524))
  (fp_line (start -5.9309 5.5245) (end -6.1849 5.5245) (layer F.SilkS) (width .1524))
  (fp_line (start 6.1849 -5.9055) (end 6.1849 -5.5245) (layer F.SilkS) (width .1524))
  (fp_line (start 6.1849 -5.5245) (end 5.9309 -5.5245) (layer F.SilkS) (width .1524))
  (fp_line (start 5.9309 -5.5245) (end 5.9309 -5.9055) (layer F.SilkS) (width .1524))
  (fp_line (start 5.9309 -5.9055) (end 6.1849 -5.9055) (layer F.SilkS) (width .1524))
  (fp_line (start -1.32007 -1.83007) (end -1.32007 -1.2811) (layer Dwgs.User) (width .1524))
  (fp_line (start -1.32007 -1.2811) (end -1.028821 -1.2811) (layer Dwgs.User) (width .1524))
  (fp_line (start -1.028821 -1.2811) (end -1.028821 -1.2811) (layer Dwgs.User) (width .1524))
  (fp_line (start -1.028821 -1.2811) (end -.8874 -1.422521) (layer Dwgs.User) (width .1524))
  (fp_line (start -.8874 -1.422521) (end -.8874 -1.422521) (layer Dwgs.User) (width .1524))
  (fp_line (start -.8874 -1.422521) (end -.8874 -1.83007) (layer Dwgs.User) (width .1524))
  (fp_line (start -.8874 -1.83007) (end -1.32007 -1.83007) (layer Dwgs.User) (width .1524))
  (fp_line (start -1.4585 -1.9685) (end 1.4585 -1.9685) (layer Dwgs.User) (width .1524))
  (fp_line (start 1.4585 -1.9685) (end 1.4585 -1.3811) (layer Dwgs.User) (width .1524))
  (fp_line (start 1.4585 -1.3811) (end -1.4585 -1.3811) (layer Dwgs.User) (width .1524))
  (fp_line (start -1.4585 -1.3811) (end -1.4585 -1.9685) (layer Dwgs.User) (width .1524))
  (fp_line (start -1.32007 -1.0811) (end -1.32007 -.4937) (layer Dwgs.User) (width .1524))
  (fp_line (start -1.32007 -.4937) (end -1.028821 -.4937) (layer Dwgs.User) (width .1524))
  (fp_line (start -1.028821 -.4937) (end -1.028821 -.4937) (layer Dwgs.User) (width .1524))
  (fp_line (start -1.028821 -.4937) (end -.8874 -.635121) (layer Dwgs.User) (width .1524))
  (fp_line (start -.8874 -.635121) (end -.8874 -.635121) (layer Dwgs.User) (width .1524))
  (fp_line (start -.8874 -.635121) (end -.8874 -.939679) (layer Dwgs.User) (width .1524))
  (fp_line (start -.8874 -.939679) (end -.8874 -.939679) (layer Dwgs.User) (width .1524))
  (fp_line (start -.8874 -.939679) (end -1.028821 -1.0811) (layer Dwgs.User) (width .1524))
  (fp_line (start -1.028821 -1.0811) (end -1.028821 -1.0811) (layer Dwgs.User) (width .1524))
  (fp_line (start -1.028821 -1.0811) (end -1.32007 -1.0811) (layer Dwgs.User) (width .1524))
  (fp_line (start -1.4585 -.9811) (end 1.4585 -.9811) (layer Dwgs.User) (width .1524))
  (fp_line (start 1.4585 -.9811) (end 1.4585 -.5937) (layer Dwgs.User) (width .1524))
  (fp_line (start 1.4585 -.5937) (end -1.4585 -.5937) (layer Dwgs.User) (width .1524))
  (fp_line (start -1.4585 -.5937) (end -1.4585 -.9811) (layer Dwgs.User) (width .1524))
  (fp_line (start -1.32007 -.2937) (end -1.32007 .2937) (layer Dwgs.User) (width .1524))
  (fp_line (start -1.32007 .2937) (end -1.028821 .2937) (layer Dwgs.User) (width .1524))
  (fp_line (start -1.028821 .2937) (end -1.028821 .2937) (layer Dwgs.User) (width .1524))
  (fp_line (start -1.028821 .2937) (end -.8874 .152279) (layer Dwgs.User) (width .1524))
  (fp_line (start -.8874 .152279) (end -.8874 .152279) (layer Dwgs.User) (width .1524))
  (fp_line (start -.8874 .152279) (end -.8874 -.152279) (layer Dwgs.User) (width .1524))
  (fp_line (start -.8874 -.152279) (end -.8874 -.152279) (layer Dwgs.User) (width .1524))
  (fp_line (start -.8874 -.152279) (end -1.028821 -.2937) (layer Dwgs.User) (width .1524))
  (fp_line (start -1.028821 -.2937) (end -1.028821 -.2937) (layer Dwgs.User) (width .1524))
  (fp_line (start -1.028821 -.2937) (end -1.32007 -.2937) (layer Dwgs.User) (width .1524))
  (fp_line (start -1.4585 -.1937) (end 1.4585 -.1937) (layer Dwgs.User) (width .1524))
  (fp_line (start 1.4585 -.1937) (end 1.4585 .1937) (layer Dwgs.User) (width .1524))
  (fp_line (start 1.4585 .1937) (end -1.4585 .1937) (layer Dwgs.User) (width .1524))
  (fp_line (start -1.4585 .1937) (end -1.4585 -.1937) (layer Dwgs.User) (width .1524))
  (fp_line (start -1.32007 .4937) (end -1.32007 1.0811) (layer Dwgs.User) (width .1524))
  (fp_line (start -1.32007 1.0811) (end -1.028821 1.0811) (layer Dwgs.User) (width .1524))
  (fp_line (start -1.028821 1.0811) (end -1.028821 1.0811) (layer Dwgs.User) (width .1524))
  (fp_line (start -1.028821 1.0811) (end -.8874 .939679) (layer Dwgs.User) (width .1524))
  (fp_line (start -.8874 .939679) (end -.8874 .939679) (layer Dwgs.User) (width .1524))
  (fp_line (start -.8874 .939679) (end -.8874 .635121) (layer Dwgs.User) (width .1524))
  (fp_line (start -.8874 .635121) (end -.8874 .635121) (layer Dwgs.User) (width .1524))
  (fp_line (start -.8874 .635121) (end -1.028821 .4937) (layer Dwgs.User) (width .1524))
  (fp_line (start -1.028821 .4937) (end -1.028821 .4937) (layer Dwgs.User) (width .1524))
  (fp_line (start -1.028821 .4937) (end -1.32007 .4937) (layer Dwgs.User) (width .1524))
  (fp_line (start -1.4585 .5937) (end 1.4585 .5937) (layer Dwgs.User) (width .1524))
  (fp_line (start 1.4585 .5937) (end 1.4585 .9811) (layer Dwgs.User) (width .1524))
  (fp_line (start 1.4585 .9811) (end -1.4585 .9811) (layer Dwgs.User) (width .1524))
  (fp_line (start -1.4585 .9811) (end -1.4585 .5937) (layer Dwgs.User) (width .1524))
  (fp_line (start -1.32007 1.2811) (end -1.32007 1.83007) (layer Dwgs.User) (width .1524))
  (fp_line (start -1.32007 1.83007) (end -.8874 1.83007) (layer Dwgs.User) (width .1524))
  (fp_line (start -.8874 1.83007) (end -.8874 1.422521) (layer Dwgs.User) (width .1524))
  (fp_line (start -.8874 1.422521) (end -.8874 1.422521) (layer Dwgs.User) (width .1524))
  (fp_line (start -.8874 1.422521) (end -1.028821 1.2811) (layer Dwgs.User) (width .1524))
  (fp_line (start -1.028821 1.2811) (end -1.028821 1.2811) (layer Dwgs.User) (width .1524))
  (fp_line (start -1.028821 1.2811) (end -1.32007 1.2811) (layer Dwgs.User) (width .1524))
  (fp_line (start -1.4585 1.3811) (end 1.4585 1.3811) (layer Dwgs.User) (width .1524))
  (fp_line (start 1.4585 1.3811) (end 1.4585 1.9685) (layer Dwgs.User) (width .1524))
  (fp_line (start 1.4585 1.9685) (end -1.4585 1.9685) (layer Dwgs.User) (width .1524))
  (fp_line (start -1.4585 1.9685) (end -1.4585 1.3811) (layer Dwgs.User) (width .1524))
  (fp_line (start -1.4585 -1.9685) (end -.9874 -1.9685) (layer Dwgs.User) (width .1524))
  (fp_line (start -.9874 -1.9685) (end -.9874 1.9685) (layer Dwgs.User) (width .1524))
  (fp_line (start -.9874 1.9685) (end -1.4585 1.9685) (layer Dwgs.User) (width .1524))
  (fp_line (start -1.4585 1.9685) (end -1.4585 -1.9685) (layer Dwgs.User) (width .1524))
  (fp_line (start -.6874 -1.83007) (end -.6874 -1.422521) (layer Dwgs.User) (width .1524))
  (fp_line (start -.6874 -1.422521) (end -.6874 -1.422521) (layer Dwgs.User) (width .1524))
  (fp_line (start -.6874 -1.422521) (end -.545979 -1.2811) (layer Dwgs.User) (width .1524))
  (fp_line (start -.545979 -1.2811) (end -.545979 -1.2811) (layer Dwgs.User) (width .1524))
  (fp_line (start -.545979 -1.2811) (end -.241421 -1.2811) (layer Dwgs.User) (width .1524))
  (fp_line (start -.241421 -1.2811) (end -.241421 -1.2811) (layer Dwgs.User) (width .1524))
  (fp_line (start -.241421 -1.2811) (end -.1 -1.422521) (layer Dwgs.User) (width .1524))
  (fp_line (start -.1 -1.422521) (end -.1 -1.422521) (layer Dwgs.User) (width .1524))
  (fp_line (start -.1 -1.422521) (end -.1 -1.83007) (layer Dwgs.User) (width .1524))
  (fp_line (start -.1 -1.83007) (end -.6874 -1.83007) (layer Dwgs.User) (width .1524))
  (fp_line (start -.545979 -1.0811) (end -.545979 -1.0811) (layer Dwgs.User) (width .1524))
  (fp_line (start -.545979 -1.0811) (end -.6874 -.939679) (layer Dwgs.User) (width .1524))
  (fp_line (start -.6874 -.939679) (end -.6874 -.939679) (layer Dwgs.User) (width .1524))
  (fp_line (start -.6874 -.939679) (end -.6874 -.635121) (layer Dwgs.User) (width .1524))
  (fp_line (start -.6874 -.635121) (end -.6874 -.635121) (layer Dwgs.User) (width .1524))
  (fp_line (start -.6874 -.635121) (end -.545979 -.4937) (layer Dwgs.User) (width .1524))
  (fp_line (start -.545979 -.4937) (end -.545979 -.4937) (layer Dwgs.User) (width .1524))
  (fp_line (start -.545979 -.4937) (end -.241421 -.4937) (layer Dwgs.User) (width .1524))
  (fp_line (start -.241421 -.4937) (end -.241421 -.4937) (layer Dwgs.User) (width .1524))
  (fp_line (start -.241421 -.4937) (end -.1 -.635121) (layer Dwgs.User) (width .1524))
  (fp_line (start -.1 -.635121) (end -.1 -.635121) (layer Dwgs.User) (width .1524))
  (fp_line (start -.1 -.635121) (end -.1 -.939679) (layer Dwgs.User) (width .1524))
  (fp_line (start -.1 -.939679) (end -.1 -.939679) (layer Dwgs.User) (width .1524))
  (fp_line (start -.1 -.939679) (end -.241421 -1.0811) (layer Dwgs.User) (width .1524))
  (fp_line (start -.241421 -1.0811) (end -.241421 -1.0811) (layer Dwgs.User) (width .1524))
  (fp_line (start -.241421 -1.0811) (end -.545979 -1.0811) (layer Dwgs.User) (width .1524))
  (fp_line (start -.545979 -.2937) (end -.545979 -.2937) (layer Dwgs.User) (width .1524))
  (fp_line (start -.545979 -.2937) (end -.6874 -.152279) (layer Dwgs.User) (width .1524))
  (fp_line (start -.6874 -.152279) (end -.6874 -.152279) (layer Dwgs.User) (width .1524))
  (fp_line (start -.6874 -.152279) (end -.6874 .152279) (layer Dwgs.User) (width .1524))
  (fp_line (start -.6874 .152279) (end -.6874 .152279) (layer Dwgs.User) (width .1524))
  (fp_line (start -.6874 .152279) (end -.545979 .2937) (layer Dwgs.User) (width .1524))
  (fp_line (start -.545979 .2937) (end -.545979 .2937) (layer Dwgs.User) (width .1524))
  (fp_line (start -.545979 .2937) (end -.241421 .2937) (layer Dwgs.User) (width .1524))
  (fp_line (start -.241421 .2937) (end -.241421 .2937) (layer Dwgs.User) (width .1524))
  (fp_line (start -.241421 .2937) (end -.1 .152279) (layer Dwgs.User) (width .1524))
  (fp_line (start -.1 .152279) (end -.1 .152279) (layer Dwgs.User) (width .1524))
  (fp_line (start -.1 .152279) (end -.1 -.152279) (layer Dwgs.User) (width .1524))
  (fp_line (start -.1 -.152279) (end -.1 -.152279) (layer Dwgs.User) (width .1524))
  (fp_line (start -.1 -.152279) (end -.241421 -.2937) (layer Dwgs.User) (width .1524))
  (fp_line (start -.241421 -.2937) (end -.241421 -.2937) (layer Dwgs.User) (width .1524))
  (fp_line (start -.241421 -.2937) (end -.545979 -.2937) (layer Dwgs.User) (width .1524))
  (fp_line (start -.545979 .4937) (end -.545979 .4937) (layer Dwgs.User) (width .1524))
  (fp_line (start -.545979 .4937) (end -.6874 .635121) (layer Dwgs.User) (width .1524))
  (fp_line (start -.6874 .635121) (end -.6874 .635121) (layer Dwgs.User) (width .1524))
  (fp_line (start -.6874 .635121) (end -.6874 .939679) (layer Dwgs.User) (width .1524))
  (fp_line (start -.6874 .939679) (end -.6874 .939679) (layer Dwgs.User) (width .1524))
  (fp_line (start -.6874 .939679) (end -.545979 1.0811) (layer Dwgs.User) (width .1524))
  (fp_line (start -.545979 1.0811) (end -.545979 1.0811) (layer Dwgs.User) (width .1524))
  (fp_line (start -.545979 1.0811) (end -.241421 1.0811) (layer Dwgs.User) (width .1524))
  (fp_line (start -.241421 1.0811) (end -.241421 1.0811) (layer Dwgs.User) (width .1524))
  (fp_line (start -.241421 1.0811) (end -.1 .939679) (layer Dwgs.User) (width .1524))
  (fp_line (start -.1 .939679) (end -.1 .939679) (layer Dwgs.User) (width .1524))
  (fp_line (start -.1 .939679) (end -.1 .635121) (layer Dwgs.User) (width .1524))
  (fp_line (start -.1 .635121) (end -.1 .635121) (layer Dwgs.User) (width .1524))
  (fp_line (start -.1 .635121) (end -.241421 .4937) (layer Dwgs.User) (width .1524))
  (fp_line (start -.241421 .4937) (end -.241421 .4937) (layer Dwgs.User) (width .1524))
  (fp_line (start -.241421 .4937) (end -.545979 .4937) (layer Dwgs.User) (width .1524))
  (fp_line (start -.545979 1.2811) (end -.545979 1.2811) (layer Dwgs.User) (width .1524))
  (fp_line (start -.545979 1.2811) (end -.6874 1.422521) (layer Dwgs.User) (width .1524))
  (fp_line (start -.6874 1.422521) (end -.6874 1.422521) (layer Dwgs.User) (width .1524))
  (fp_line (start -.6874 1.422521) (end -.6874 1.83007) (layer Dwgs.User) (width .1524))
  (fp_line (start -.6874 1.83007) (end -.1 1.83007) (layer Dwgs.User) (width .1524))
  (fp_line (start -.1 1.83007) (end -.1 1.422521) (layer Dwgs.User) (width .1524))
  (fp_line (start -.1 1.422521) (end -.1 1.422521) (layer Dwgs.User) (width .1524))
  (fp_line (start -.1 1.422521) (end -.241421 1.2811) (layer Dwgs.User) (width .1524))
  (fp_line (start -.241421 1.2811) (end -.241421 1.2811) (layer Dwgs.User) (width .1524))
  (fp_line (start -.241421 1.2811) (end -.545979 1.2811) (layer Dwgs.User) (width .1524))
  (fp_line (start -.2 -1.9685) (end -.5874 -1.9685) (layer Dwgs.User) (width .1524))
  (fp_line (start -.5874 -1.9685) (end -.5874 1.9685) (layer Dwgs.User) (width .1524))
  (fp_line (start -.5874 1.9685) (end -.2 1.9685) (layer Dwgs.User) (width .1524))
  (fp_line (start -.2 1.9685) (end -.2 -1.9685) (layer Dwgs.User) (width .1524))
  (fp_line (start .1 -1.83007) (end .1 -1.422521) (layer Dwgs.User) (width .1524))
  (fp_line (start .1 -1.422521) (end .1 -1.422521) (layer Dwgs.User) (width .1524))
  (fp_line (start .1 -1.422521) (end .241421 -1.2811) (layer Dwgs.User) (width .1524))
  (fp_line (start .241421 -1.2811) (end .241421 -1.2811) (layer Dwgs.User) (width .1524))
  (fp_line (start .241421 -1.2811) (end .545979 -1.2811) (layer Dwgs.User) (width .1524))
  (fp_line (start .545979 -1.2811) (end .545979 -1.2811) (layer Dwgs.User) (width .1524))
  (fp_line (start .545979 -1.2811) (end .6874 -1.422521) (layer Dwgs.User) (width .1524))
  (fp_line (start .6874 -1.422521) (end .6874 -1.422521) (layer Dwgs.User) (width .1524))
  (fp_line (start .6874 -1.422521) (end .6874 -1.83007) (layer Dwgs.User) (width .1524))
  (fp_line (start .6874 -1.83007) (end .1 -1.83007) (layer Dwgs.User) (width .1524))
  (fp_line (start .241421 -1.0811) (end .241421 -1.0811) (layer Dwgs.User) (width .1524))
  (fp_line (start .241421 -1.0811) (end .1 -.939679) (layer Dwgs.User) (width .1524))
  (fp_line (start .1 -.939679) (end .1 -.939679) (layer Dwgs.User) (width .1524))
  (fp_line (start .1 -.939679) (end .1 -.635121) (layer Dwgs.User) (width .1524))
  (fp_line (start .1 -.635121) (end .1 -.635121) (layer Dwgs.User) (width .1524))
  (fp_line (start .1 -.635121) (end .241421 -.4937) (layer Dwgs.User) (width .1524))
  (fp_line (start .241421 -.4937) (end .241421 -.4937) (layer Dwgs.User) (width .1524))
  (fp_line (start .241421 -.4937) (end .545979 -.4937) (layer Dwgs.User) (width .1524))
  (fp_line (start .545979 -.4937) (end .545979 -.4937) (layer Dwgs.User) (width .1524))
  (fp_line (start .545979 -.4937) (end .6874 -.635121) (layer Dwgs.User) (width .1524))
  (fp_line (start .6874 -.635121) (end .6874 -.635121) (layer Dwgs.User) (width .1524))
  (fp_line (start .6874 -.635121) (end .6874 -.939679) (layer Dwgs.User) (width .1524))
  (fp_line (start .6874 -.939679) (end .6874 -.939679) (layer Dwgs.User) (width .1524))
  (fp_line (start .6874 -.939679) (end .545979 -1.0811) (layer Dwgs.User) (width .1524))
  (fp_line (start .545979 -1.0811) (end .545979 -1.0811) (layer Dwgs.User) (width .1524))
  (fp_line (start .545979 -1.0811) (end .241421 -1.0811) (layer Dwgs.User) (width .1524))
  (fp_line (start .241421 -.2937) (end .241421 -.2937) (layer Dwgs.User) (width .1524))
  (fp_line (start .241421 -.2937) (end .1 -.152279) (layer Dwgs.User) (width .1524))
  (fp_line (start .1 -.152279) (end .1 -.152279) (layer Dwgs.User) (width .1524))
  (fp_line (start .1 -.152279) (end .1 .152279) (layer Dwgs.User) (width .1524))
  (fp_line (start .1 .152279) (end .1 .152279) (layer Dwgs.User) (width .1524))
  (fp_line (start .1 .152279) (end .241421 .2937) (layer Dwgs.User) (width .1524))
  (fp_line (start .241421 .2937) (end .241421 .2937) (layer Dwgs.User) (width .1524))
  (fp_line (start .241421 .2937) (end .545979 .2937) (layer Dwgs.User) (width .1524))
  (fp_line (start .545979 .2937) (end .545979 .2937) (layer Dwgs.User) (width .1524))
  (fp_line (start .545979 .2937) (end .6874 .152279) (layer Dwgs.User) (width .1524))
  (fp_line (start .6874 .152279) (end .6874 .152279) (layer Dwgs.User) (width .1524))
  (fp_line (start .6874 .152279) (end .6874 -.152279) (layer Dwgs.User) (width .1524))
  (fp_line (start .6874 -.152279) (end .6874 -.152279) (layer Dwgs.User) (width .1524))
  (fp_line (start .6874 -.152279) (end .545979 -.2937) (layer Dwgs.User) (width .1524))
  (fp_line (start .545979 -.2937) (end .545979 -.2937) (layer Dwgs.User) (width .1524))
  (fp_line (start .545979 -.2937) (end .241421 -.2937) (layer Dwgs.User) (width .1524))
  (fp_line (start .241421 .4937) (end .241421 .4937) (layer Dwgs.User) (width .1524))
  (fp_line (start .241421 .4937) (end .1 .635121) (layer Dwgs.User) (width .1524))
  (fp_line (start .1 .635121) (end .1 .635121) (layer Dwgs.User) (width .1524))
  (fp_line (start .1 .635121) (end .1 .939679) (layer Dwgs.User) (width .1524))
  (fp_line (start .1 .939679) (end .1 .939679) (layer Dwgs.User) (width .1524))
  (fp_line (start .1 .939679) (end .241421 1.0811) (layer Dwgs.User) (width .1524))
  (fp_line (start .241421 1.0811) (end .241421 1.0811) (layer Dwgs.User) (width .1524))
  (fp_line (start .241421 1.0811) (end .545979 1.0811) (layer Dwgs.User) (width .1524))
  (fp_line (start .545979 1.0811) (end .545979 1.0811) (layer Dwgs.User) (width .1524))
  (fp_line (start .545979 1.0811) (end .6874 .939679) (layer Dwgs.User) (width .1524))
  (fp_line (start .6874 .939679) (end .6874 .939679) (layer Dwgs.User) (width .1524))
  (fp_line (start .6874 .939679) (end .6874 .635121) (layer Dwgs.User) (width .1524))
  (fp_line (start .6874 .635121) (end .6874 .635121) (layer Dwgs.User) (width .1524))
  (fp_line (start .6874 .635121) (end .545979 .4937) (layer Dwgs.User) (width .1524))
  (fp_line (start .545979 .4937) (end .545979 .4937) (layer Dwgs.User) (width .1524))
  (fp_line (start .545979 .4937) (end .241421 .4937) (layer Dwgs.User) (width .1524))
  (fp_line (start .241421 1.2811) (end .241421 1.2811) (layer Dwgs.User) (width .1524))
  (fp_line (start .241421 1.2811) (end .1 1.422521) (layer Dwgs.User) (width .1524))
  (fp_line (start .1 1.422521) (end .1 1.422521) (layer Dwgs.User) (width .1524))
  (fp_line (start .1 1.422521) (end .1 1.83007) (layer Dwgs.User) (width .1524))
  (fp_line (start .1 1.83007) (end .6874 1.83007) (layer Dwgs.User) (width .1524))
  (fp_line (start .6874 1.83007) (end .6874 1.422521) (layer Dwgs.User) (width .1524))
  (fp_line (start .6874 1.422521) (end .6874 1.422521) (layer Dwgs.User) (width .1524))
  (fp_line (start .6874 1.422521) (end .545979 1.2811) (layer Dwgs.User) (width .1524))
  (fp_line (start .545979 1.2811) (end .545979 1.2811) (layer Dwgs.User) (width .1524))
  (fp_line (start .545979 1.2811) (end .241421 1.2811) (layer Dwgs.User) (width .1524))
  (fp_line (start .5874 -1.9685) (end .2 -1.9685) (layer Dwgs.User) (width .1524))
  (fp_line (start .2 -1.9685) (end .2 1.9685) (layer Dwgs.User) (width .1524))
  (fp_line (start .2 1.9685) (end .5874 1.9685) (layer Dwgs.User) (width .1524))
  (fp_line (start .5874 1.9685) (end .5874 -1.9685) (layer Dwgs.User) (width .1524))
  (fp_line (start .8874 -1.83007) (end .8874 -1.422521) (layer Dwgs.User) (width .1524))
  (fp_line (start .8874 -1.422521) (end .8874 -1.422521) (layer Dwgs.User) (width .1524))
  (fp_line (start .8874 -1.422521) (end 1.028821 -1.2811) (layer Dwgs.User) (width .1524))
  (fp_line (start 1.028821 -1.2811) (end 1.028821 -1.2811) (layer Dwgs.User) (width .1524))
  (fp_line (start 1.028821 -1.2811) (end 1.32007 -1.2811) (layer Dwgs.User) (width .1524))
  (fp_line (start 1.32007 -1.2811) (end 1.32007 -1.83007) (layer Dwgs.User) (width .1524))
  (fp_line (start 1.32007 -1.83007) (end .8874 -1.83007) (layer Dwgs.User) (width .1524))
  (fp_line (start 1.028821 -1.0811) (end 1.028821 -1.0811) (layer Dwgs.User) (width .1524))
  (fp_line (start 1.028821 -1.0811) (end .8874 -.939679) (layer Dwgs.User) (width .1524))
  (fp_line (start .8874 -.939679) (end .8874 -.939679) (layer Dwgs.User) (width .1524))
  (fp_line (start .8874 -.939679) (end .8874 -.635121) (layer Dwgs.User) (width .1524))
  (fp_line (start .8874 -.635121) (end .8874 -.635121) (layer Dwgs.User) (width .1524))
  (fp_line (start .8874 -.635121) (end 1.028821 -.4937) (layer Dwgs.User) (width .1524))
  (fp_line (start 1.028821 -.4937) (end 1.028821 -.4937) (layer Dwgs.User) (width .1524))
  (fp_line (start 1.028821 -.4937) (end 1.32007 -.4937) (layer Dwgs.User) (width .1524))
  (fp_line (start 1.32007 -.4937) (end 1.32007 -1.0811) (layer Dwgs.User) (width .1524))
  (fp_line (start 1.32007 -1.0811) (end 1.028821 -1.0811) (layer Dwgs.User) (width .1524))
  (fp_line (start 1.028821 -.2937) (end 1.028821 -.2937) (layer Dwgs.User) (width .1524))
  (fp_line (start 1.028821 -.2937) (end .8874 -.152279) (layer Dwgs.User) (width .1524))
  (fp_line (start .8874 -.152279) (end .8874 -.152279) (layer Dwgs.User) (width .1524))
  (fp_line (start .8874 -.152279) (end .8874 .152279) (layer Dwgs.User) (width .1524))
  (fp_line (start .8874 .152279) (end .8874 .152279) (layer Dwgs.User) (width .1524))
  (fp_line (start .8874 .152279) (end 1.028821 .2937) (layer Dwgs.User) (width .1524))
  (fp_line (start 1.028821 .2937) (end 1.028821 .2937) (layer Dwgs.User) (width .1524))
  (fp_line (start 1.028821 .2937) (end 1.32007 .2937) (layer Dwgs.User) (width .1524))
  (fp_line (start 1.32007 .2937) (end 1.32007 -.2937) (layer Dwgs.User) (width .1524))
  (fp_line (start 1.32007 -.2937) (end 1.028821 -.2937) (layer Dwgs.User) (width .1524))
  (fp_line (start 1.028821 .4937) (end 1.028821 .4937) (layer Dwgs.User) (width .1524))
  (fp_line (start 1.028821 .4937) (end .8874 .635121) (layer Dwgs.User) (width .1524))
  (fp_line (start .8874 .635121) (end .8874 .635121) (layer Dwgs.User) (width .1524))
  (fp_line (start .8874 .635121) (end .8874 .939679) (layer Dwgs.User) (width .1524))
  (fp_line (start .8874 .939679) (end .8874 .939679) (layer Dwgs.User) (width .1524))
  (fp_line (start .8874 .939679) (end 1.028821 1.0811) (layer Dwgs.User) (width .1524))
  (fp_line (start 1.028821 1.0811) (end 1.028821 1.0811) (layer Dwgs.User) (width .1524))
  (fp_line (start 1.028821 1.0811) (end 1.32007 1.0811) (layer Dwgs.User) (width .1524))
  (fp_line (start 1.32007 1.0811) (end 1.32007 .4937) (layer Dwgs.User) (width .1524))
  (fp_line (start 1.32007 .4937) (end 1.028821 .4937) (layer Dwgs.User) (width .1524))
  (fp_line (start 1.028821 1.2811) (end 1.028821 1.2811) (layer Dwgs.User) (width .1524))
  (fp_line (start 1.028821 1.2811) (end .8874 1.422521) (layer Dwgs.User) (width .1524))
  (fp_line (start .8874 1.422521) (end .8874 1.422521) (layer Dwgs.User) (width .1524))
  (fp_line (start .8874 1.422521) (end .8874 1.83007) (layer Dwgs.User) (width .1524))
  (fp_line (start .8874 1.83007) (end 1.32007 1.83007) (layer Dwgs.User) (width .1524))
  (fp_line (start 1.32007 1.83007) (end 1.32007 1.2811) (layer Dwgs.User) (width .1524))
  (fp_line (start 1.32007 1.2811) (end 1.028821 1.2811) (layer Dwgs.User) (width .1524))
  (fp_line (start .9874 -1.9685) (end 1.4585 -1.9685) (layer Dwgs.User) (width .1524))
  (fp_line (start 1.4585 -1.9685) (end 1.4585 1.9685) (layer Dwgs.User) (width .1524))
  (fp_line (start 1.4585 1.9685) (end .9874 1.9685) (layer Dwgs.User) (width .1524))
  (fp_line (start .9874 1.9685) (end .9874 -1.9685) (layer Dwgs.User) (width .1524))
  (fp_line (start -5.9309 6.2484) (end -5.9309 -6.2484) (layer F.CrtYd) (width .1524))
  (fp_line (start -5.9309 -6.2484) (end -4.0513 -6.2484) (layer F.CrtYd) (width .1524))
  (fp_line (start -4.0513 -6.2484) (end -4.0513 -6.731) (layer F.CrtYd) (width .1524))
  (fp_line (start -4.0513 -6.731) (end 4.0513 -6.731) (layer F.CrtYd) (width .1524))
  (fp_line (start 4.0513 -6.731) (end 4.0513 -6.2484) (layer F.CrtYd) (width .1524))
  (fp_line (start 4.0513 -6.2484) (end 5.9309 -6.2484) (layer F.CrtYd) (width .1524))
  (fp_line (start 5.9309 -6.2484) (end 5.9309 6.2484) (layer F.CrtYd) (width .1524))
  (fp_line (start 5.9309 6.2484) (end 4.0513 6.2484) (layer F.CrtYd) (width .1524))
  (fp_line (start 4.0513 6.2484) (end 4.0513 6.731) (layer F.CrtYd) (width .1524))
  (fp_line (start 4.0513 6.731) (end -4.0513 6.731) (layer F.CrtYd) (width .1524))
  (fp_line (start -4.0513 6.731) (end -4.0513 6.2484) (layer F.CrtYd) (width .1524))
  (fp_line (start -4.0513 6.2484) (end -5.9309 6.2484) (layer F.CrtYd) (width .1524))
  (fp_circle (center -.7874 -1.1811) (end -.5969 -1.1811) (layer Eco1.User) (width .1524))
  (fp_circle (center -.7874 -.3937) (end -.5969 -.3937) (layer Eco1.User) (width .1524))
  (fp_circle (center -.7874 .3937) (end -.5969 .3937) (layer Eco1.User) (width .1524))
  (fp_circle (center -.7874 1.1811) (end -.5969 1.1811) (layer Eco1.User) (width .1524))
  (fp_circle (center 0 -1.1811) (end .1905 -1.1811) (layer Eco1.User) (width .1524))
  (fp_circle (center 0 -.3937) (end .1905 -.3937) (layer Eco1.User) (width .1524))
  (fp_circle (center 0 .3937) (end .1905 .3937) (layer Eco1.User) (width .1524))
  (fp_circle (center 0 1.1811) (end .1905 1.1811) (layer Eco1.User) (width .1524))
  (fp_circle (center .7874 -1.1811) (end .9779 -1.1811) (layer Eco1.User) (width .1524))
  (fp_circle (center .7874 -.3937) (end .9779 -.3937) (layer Eco1.User) (width .1524))
  (fp_circle (center .7874 .3937) (end .9779 .3937) (layer Eco1.User) (width .1524))
  (fp_circle (center .7874 1.1811) (end .9779 1.1811) (layer Eco1.User) (width .1524))
  (pad 1 smd rect (at -4.6863 -5.715) (size 1.9812 .5588) (layers F.Cu F.Paste F.Mask))
  (pad 2 smd rect (at -4.6863 -4.445) (size 1.9812 .5588) (layers F.Cu F.Paste F.Mask))
  (pad 3 smd rect (at -4.6863 -3.175) (size 1.9812 .5588) (layers F.Cu F.Paste F.Mask))
  (pad 4 smd rect (at -4.6863 -1.905) (size 1.9812 .5588) (layers F.Cu F.Paste F.Mask))
  (pad 5 smd rect (at -4.6863 -.635) (size 1.9812 .5588) (layers F.Cu F.Paste F.Mask))
  (pad 6 smd rect (at -4.6863 .635) (size 1.9812 .5588) (layers F.Cu F.Paste F.Mask))
  (pad 7 smd rect (at -4.6863 1.905) (size 1.9812 .5588) (layers F.Cu F.Paste F.Mask))
  (pad 8 smd rect (at -4.6863 3.175) (size 1.9812 .5588) (layers F.Cu F.Paste F.Mask))
  (pad 9 smd rect (at -4.6863 4.445) (size 1.9812 .5588) (layers F.Cu F.Paste F.Mask))
  (pad 10 smd rect (at -4.6863 5.715) (size 1.9812 .5588) (layers F.Cu F.Paste F.Mask))
  (pad 11 smd rect (at 4.6863 5.715) (size 1.9812 .5588) (layers F.Cu F.Paste F.Mask))
  (pad 12 smd rect (at 4.6863 4.445) (size 1.9812 .5588) (layers F.Cu F.Paste F.Mask))
  (pad 13 smd rect (at 4.6863 3.175) (size 1.9812 .5588) (layers F.Cu F.Paste F.Mask))
  (pad 14 smd rect (at 4.6863 1.905) (size 1.9812 .5588) (layers F.Cu F.Paste F.Mask))
  (pad 15 smd rect (at 4.6863 .635) (size 1.9812 .5588) (layers F.Cu F.Paste F.Mask))
  (pad 16 smd rect (at 4.6863 -.635) (size 1.9812 .5588) (layers F.Cu F.Paste F.Mask))
  (pad 17 smd rect (at 4.6863 -1.905) (size 1.9812 .5588) (layers F.Cu F.Paste F.Mask))
  (pad 18 smd rect (at 4.6863 -3.175) (size 1.9812 .5588) (layers F.Cu F.Paste F.Mask))
  (pad 19 smd rect (at 4.6863 -4.445) (size 1.9812 .5588) (layers F.Cu F.Paste F.Mask))
  (pad 20 smd rect (at 4.6863 -5.715) (size 1.9812 .5588) (layers F.Cu F.Paste F.Mask))
  (pad 21 smd rect (at 0 0) (size 2.789999 3.81) (layers F.Cu F.Paste F.Mask))
)
