EESchema Schematic File Version 4
EELAYER 30 0
EELAYER END
$Descr A3 16535 11693
encoding utf-8
Sheet 1 1
Title "TPA6120 based headphone amplifier - Power Supply "
Date "2020-06-21"
Rev "2.0.0"
Comp "Cocoacrumbs"
Comment1 ""
Comment2 ""
Comment3 ""
Comment4 ""
$EndDescr
$Comp
L LT3045EMSE:LT3045EMSE-1#PBF U1
U 1 1 5D474B27
P 7850 1650
F 0 "U1" H 7800 2450 50  0000 L CNN
F 1 "LT3045EMSE" H 7600 2350 50  0000 L CNN
F 2 "Package_SO:MSOP-12-1EP_3x4mm_P0.65mm_EP1.65x2.85mm" H 7850 1650 50  0001 L BNN
F 3 "" H 7850 1650 50  0001 L BNN
F 4 "IC REG LINEAR 500MA 12MSOP" H 7850 1650 50  0001 L BNN "Field4"
F 5 "TSSOP-12 Linear Technology" H 7850 1650 50  0001 L BNN "Field5"
F 6 "Linear Technology" H 7850 1650 50  0001 L BNN "Field6"
F 7 "4.33 USD" H 7850 1650 50  0001 L BNN "Field7"
F 8 "LT3045EMSE-1#PBF" H 7850 1650 50  0001 L BNN "Field8"
	1    7850 1650
	1    0    0    -1  
$EndComp
$Comp
L Device:CP C8
U 1 1 5D47D1D6
P 4300 3200
F 0 "C8" H 4418 3246 50  0000 L CNN
F 1 "3900uF" H 4418 3155 50  0000 L CNN
F 2 "Capacitor_THT:CP_Radial_D16.0mm_P7.50mm" H 4338 3050 50  0001 C CNN
F 3 "~" H 4300 3200 50  0001 C CNN
	1    4300 3200
	1    0    0    -1  
$EndComp
$Comp
L Device:C C3
U 1 1 5D47F5BF
P 5300 2000
F 0 "C3" H 5415 2046 50  0000 L CNN
F 1 "0.1uF" H 5415 1955 50  0000 L CNN
F 2 "Capacitor_SMD:C_0805_2012Metric_Pad1.15x1.40mm_HandSolder" H 5338 1850 50  0001 C CNN
F 3 "~" H 5300 2000 50  0001 C CNN
	1    5300 2000
	1    0    0    -1  
$EndComp
$Comp
L Device:LED D1
U 1 1 5D4806DF
P 5850 1750
F 0 "D1" V 5889 1633 50  0000 R CNN
F 1 "LED" V 5798 1633 50  0000 R CNN
F 2 "LED_SMD:LED_0805_2012Metric_Pad1.15x1.40mm_HandSolder" H 5850 1750 50  0001 C CNN
F 3 "~" H 5850 1750 50  0001 C CNN
	1    5850 1750
	0    -1   -1   0   
$EndComp
$Comp
L Device:R R3
U 1 1 5D483FF8
P 5850 2250
F 0 "R3" H 5920 2296 50  0000 L CNN
F 1 "1.8k" H 5920 2205 50  0000 L CNN
F 2 "Resistor_SMD:R_0805_2012Metric_Pad1.15x1.40mm_HandSolder" V 5780 2250 50  0001 C CNN
F 3 "~" H 5850 2250 50  0001 C CNN
	1    5850 2250
	1    0    0    -1  
$EndComp
$Comp
L Device:D D2
U 1 1 5D488450
P 2850 2900
F 0 "D2" V 2804 2979 50  0000 L CNN
F 1 "MUR220G" V 2895 2979 50  0000 L CNN
F 2 "Diode_THT:D_DO-41_SOD81_P7.62mm_Horizontal" H 2850 2900 50  0001 C CNN
F 3 "~" H 2850 2900 50  0001 C CNN
	1    2850 2900
	0    1    1    0   
$EndComp
$Comp
L Device:D D3
U 1 1 5D488B43
P 3350 2900
F 0 "D3" V 3304 2979 50  0000 L CNN
F 1 "MUR220G" V 3395 2979 50  0000 L CNN
F 2 "Diode_THT:D_DO-41_SOD81_P7.62mm_Horizontal" H 3350 2900 50  0001 C CNN
F 3 "~" H 3350 2900 50  0001 C CNN
	1    3350 2900
	0    1    1    0   
$EndComp
$Comp
L Device:D D4
U 1 1 5D489445
P 2850 3500
F 0 "D4" V 2804 3579 50  0000 L CNN
F 1 "MUR220G" V 2895 3579 50  0000 L CNN
F 2 "Diode_THT:D_DO-41_SOD81_P7.62mm_Horizontal" H 2850 3500 50  0001 C CNN
F 3 "~" H 2850 3500 50  0001 C CNN
	1    2850 3500
	0    1    1    0   
$EndComp
$Comp
L Device:D D5
U 1 1 5D48A64B
P 3350 3500
F 0 "D5" V 3304 3579 50  0000 L CNN
F 1 "MUR220G" V 3395 3579 50  0000 L CNN
F 2 "Diode_THT:D_DO-41_SOD81_P7.62mm_Horizontal" H 3350 3500 50  0001 C CNN
F 3 "~" H 3350 3500 50  0001 C CNN
	1    3350 3500
	0    1    1    0   
$EndComp
$Comp
L Device:C C7
U 1 1 5D48CEA9
P 3900 2900
F 0 "C7" H 4015 2946 50  0000 L CNN
F 1 "0.1uF" H 4015 2855 50  0000 L CNN
F 2 "Capacitor_THT:C_Rect_L10.3mm_W5.7mm_P7.50mm_MKS4" H 3938 2750 50  0001 C CNN
F 3 "~" H 3900 2900 50  0001 C CNN
	1    3900 2900
	1    0    0    -1  
$EndComp
$Comp
L Device:C C10
U 1 1 5D48D264
P 3900 3500
F 0 "C10" H 4015 3546 50  0000 L CNN
F 1 "0.1uF" H 4015 3455 50  0000 L CNN
F 2 "Capacitor_THT:C_Rect_L10.3mm_W5.7mm_P7.50mm_MKS4" H 3938 3350 50  0001 C CNN
F 3 "~" H 3900 3500 50  0001 C CNN
	1    3900 3500
	1    0    0    -1  
$EndComp
$Comp
L Device:C C6
U 1 1 5D48D7FC
P 2300 2900
F 0 "C6" H 2415 2946 50  0000 L CNN
F 1 "0.1uF" H 2415 2855 50  0000 L CNN
F 2 "Capacitor_THT:C_Rect_L10.3mm_W5.7mm_P7.50mm_MKS4" H 2338 2750 50  0001 C CNN
F 3 "~" H 2300 2900 50  0001 C CNN
	1    2300 2900
	1    0    0    -1  
$EndComp
$Comp
L Device:C C9
U 1 1 5D48E15A
P 2300 3500
F 0 "C9" H 2415 3546 50  0000 L CNN
F 1 "0.1uF" H 2415 3455 50  0000 L CNN
F 2 "Capacitor_THT:C_Rect_L10.3mm_W5.7mm_P7.50mm_MKS4" H 2338 3350 50  0001 C CNN
F 3 "~" H 2300 3500 50  0001 C CNN
	1    2300 3500
	1    0    0    -1  
$EndComp
Wire Wire Line
	2300 3050 2850 3050
Wire Wire Line
	2300 2750 2850 2750
Wire Wire Line
	3350 2750 3900 2750
Wire Wire Line
	3350 3050 3900 3050
Wire Wire Line
	2300 3350 2850 3350
Wire Wire Line
	2300 3650 2850 3650
Wire Wire Line
	3350 3350 3900 3350
Wire Wire Line
	3900 3650 3350 3650
Wire Wire Line
	3350 3050 3350 3250
Connection ~ 3350 3050
Connection ~ 3350 3350
Wire Wire Line
	2850 3050 2850 3150
Connection ~ 2850 3050
Connection ~ 2850 3350
Connection ~ 2850 3150
Wire Wire Line
	2850 3150 2850 3350
Connection ~ 3350 3250
Wire Wire Line
	3350 3250 3350 3350
Wire Wire Line
	2850 2750 3350 2750
Connection ~ 2850 2750
Connection ~ 3350 2750
Wire Wire Line
	3900 2750 4300 2750
Wire Wire Line
	4300 2750 4300 3050
Connection ~ 3900 2750
Wire Wire Line
	2850 3650 3350 3650
Connection ~ 2850 3650
Connection ~ 3350 3650
Wire Wire Line
	3900 3650 4300 3650
Wire Wire Line
	4300 3650 4300 3350
Connection ~ 3900 3650
Wire Wire Line
	4300 3650 4800 3650
Wire Wire Line
	5300 2450 5300 2150
Connection ~ 4300 3650
Wire Wire Line
	5300 1550 5300 1850
Wire Wire Line
	5300 1550 5850 1550
Wire Wire Line
	5850 1550 5850 1600
Wire Wire Line
	5850 1900 5850 2100
Wire Wire Line
	5850 2400 5850 2450
Wire Wire Line
	5850 2450 5300 2450
Connection ~ 4300 2750
$Comp
L Device:C C4
U 1 1 5D493FBE
P 6400 2000
F 0 "C4" H 6515 2046 50  0000 L CNN
F 1 "4.7uF" H 6515 1955 50  0000 L CNN
F 2 "Capacitor_SMD:C_0805_2012Metric_Pad1.15x1.40mm_HandSolder" H 6438 1850 50  0001 C CNN
F 3 "~" H 6400 2000 50  0001 C CNN
	1    6400 2000
	1    0    0    -1  
$EndComp
Wire Wire Line
	5850 1550 6400 1550
Wire Wire Line
	6400 1550 6400 1850
Connection ~ 5850 1550
Wire Wire Line
	6400 2150 6400 2450
Wire Wire Line
	6400 2450 5850 2450
Connection ~ 5850 2450
Wire Wire Line
	6400 1550 6850 1550
Connection ~ 6400 1550
Wire Wire Line
	6950 1350 6850 1350
Wire Wire Line
	6850 1350 6850 1550
Connection ~ 6850 1550
Wire Wire Line
	6850 1550 6950 1550
Wire Wire Line
	6400 2450 8850 2450
Wire Wire Line
	8850 2450 8850 2050
Wire Wire Line
	8850 2050 8750 2050
Connection ~ 6400 2450
Wire Wire Line
	6850 1550 6850 1650
Wire Wire Line
	6950 1650 6850 1650
Connection ~ 6850 1650
Wire Wire Line
	6850 1650 6850 1750
Wire Wire Line
	6950 1750 6850 1750
Wire Wire Line
	6950 1450 6700 1450
Wire Wire Line
	6400 2450 6400 2950
Wire Wire Line
	6400 2950 6700 2950
Wire Wire Line
	8750 1150 8850 1150
Wire Wire Line
	8850 1150 8850 2050
Connection ~ 8850 2050
$Comp
L Device:R R4
U 1 1 5D49DA91
P 8950 2700
F 0 "R4" H 9020 2746 50  0000 L CNN
F 1 "147k" H 9020 2655 50  0000 L CNN
F 2 "Resistor_SMD:R_0805_2012Metric_Pad1.15x1.40mm_HandSolder" V 8880 2700 50  0001 C CNN
F 3 "~" H 8950 2700 50  0001 C CNN
	1    8950 2700
	1    0    0    -1  
$EndComp
Wire Wire Line
	8750 1750 8950 1750
Wire Wire Line
	8950 1750 8950 2450
$Comp
L Device:C C5
U 1 1 5D49F2D1
P 9300 2700
F 0 "C5" H 9415 2746 50  0000 L CNN
F 1 "4.7uF" H 9415 2655 50  0000 L CNN
F 2 "Capacitor_SMD:C_0805_2012Metric_Pad1.15x1.40mm_HandSolder" H 9338 2550 50  0001 C CNN
F 3 "~" H 9300 2700 50  0001 C CNN
	1    9300 2700
	1    0    0    -1  
$EndComp
Wire Wire Line
	8950 2450 9300 2450
Wire Wire Line
	9300 2450 9300 2550
Connection ~ 8950 2450
Wire Wire Line
	8950 2450 8950 2550
Wire Wire Line
	6700 2950 8950 2950
Wire Wire Line
	9300 2950 9300 2850
Connection ~ 6700 2950
Wire Wire Line
	8950 2850 8950 2950
Connection ~ 8950 2950
Wire Wire Line
	8950 2950 9300 2950
$Comp
L Device:C C1
U 1 1 5D4A27D9
P 10100 1850
F 0 "C1" H 10215 1896 50  0000 L CNN
F 1 "10uF" H 10215 1805 50  0000 L CNN
F 2 "Capacitor_SMD:C_1206_3216Metric_Pad1.42x1.75mm_HandSolder" H 10138 1700 50  0001 C CNN
F 3 "~" H 10100 1850 50  0001 C CNN
	1    10100 1850
	1    0    0    -1  
$EndComp
$Comp
L Device:R R5
U 1 1 5D4A2F11
P 9700 2700
F 0 "R5" H 9770 2746 50  0000 L CNN
F 1 "49.9k" H 9770 2655 50  0000 L CNN
F 2 "Resistor_SMD:R_0805_2012Metric_Pad1.15x1.40mm_HandSolder" V 9630 2700 50  0001 C CNN
F 3 "~" H 9700 2700 50  0001 C CNN
	1    9700 2700
	1    0    0    -1  
$EndComp
$Comp
L Device:R R2
U 1 1 5D4A3418
P 9700 2200
F 0 "R2" H 9770 2246 50  0000 L CNN
F 1 "453k" H 9770 2155 50  0000 L CNN
F 2 "Resistor_SMD:R_0805_2012Metric_Pad1.15x1.40mm_HandSolder" V 9630 2200 50  0001 C CNN
F 3 "~" H 9700 2200 50  0001 C CNN
	1    9700 2200
	1    0    0    -1  
$EndComp
Wire Wire Line
	9700 2350 9700 2450
Wire Wire Line
	9300 2950 9700 2950
Wire Wire Line
	9700 2950 9700 2850
Connection ~ 9300 2950
Wire Wire Line
	8750 1650 9050 1650
Wire Wire Line
	9050 1650 9050 2350
Wire Wire Line
	9050 2350 9400 2350
Wire Wire Line
	9400 2350 9400 2450
Wire Wire Line
	9400 2450 9700 2450
Connection ~ 9700 2450
Wire Wire Line
	9700 2450 9700 2550
Wire Wire Line
	9700 1350 9700 2050
Wire Wire Line
	8750 1450 8750 1350
Wire Wire Line
	8750 1350 9700 1350
$Comp
L Device:C C2
U 1 1 5D4AD507
P 10550 1850
F 0 "C2" H 10665 1896 50  0000 L CNN
F 1 "0uF" H 10665 1805 50  0000 L CNN
F 2 "Capacitor_SMD:C_1206_3216Metric_Pad1.42x1.75mm_HandSolder" H 10588 1700 50  0001 C CNN
F 3 "~" H 10550 1850 50  0001 C CNN
	1    10550 1850
	1    0    0    -1  
$EndComp
Wire Wire Line
	9700 2950 10100 2950
Wire Wire Line
	10100 2950 10100 2000
Connection ~ 9700 2950
Wire Wire Line
	10550 2950 10100 2950
Wire Wire Line
	10550 2000 10550 2950
Connection ~ 10100 2950
Connection ~ 9700 1350
Wire Wire Line
	10100 1700 10100 1550
Wire Wire Line
	8750 1550 10100 1550
Wire Wire Line
	10550 1350 10950 1350
Connection ~ 10550 1350
$Comp
L Device:CP C23
U 1 1 5D4EE660
P 4300 8100
F 0 "C23" H 4182 8054 50  0000 R CNN
F 1 "3900uF" H 4182 8145 50  0000 R CNN
F 2 "Capacitor_THT:CP_Radial_D16.0mm_P7.50mm" H 4338 7950 50  0001 C CNN
F 3 "~" H 4300 8100 50  0001 C CNN
	1    4300 8100
	-1   0    0    1   
$EndComp
$Comp
L Device:C C16
U 1 1 5D4EE666
P 5300 7100
F 0 "C16" H 5415 7146 50  0000 L CNN
F 1 "0.1uF" H 5415 7055 50  0000 L CNN
F 2 "Capacitor_SMD:C_0805_2012Metric_Pad1.15x1.40mm_HandSolder" H 5338 6950 50  0001 C CNN
F 3 "~" H 5300 7100 50  0001 C CNN
	1    5300 7100
	1    0    0    -1  
$EndComp
$Comp
L Device:LED D7
U 1 1 5D4EE66C
P 5850 6850
F 0 "D7" V 5797 6928 50  0000 L CNN
F 1 "LED" V 5888 6928 50  0000 L CNN
F 2 "LED_SMD:LED_0805_2012Metric_Pad1.15x1.40mm_HandSolder" H 5850 6850 50  0001 C CNN
F 3 "~" H 5850 6850 50  0001 C CNN
	1    5850 6850
	0    1    1    0   
$EndComp
$Comp
L Device:R R14
U 1 1 5D4EE672
P 5850 7350
F 0 "R14" H 5920 7396 50  0000 L CNN
F 1 "1.8k" H 5920 7305 50  0000 L CNN
F 2 "Resistor_SMD:R_0805_2012Metric_Pad1.15x1.40mm_HandSolder" V 5780 7350 50  0001 C CNN
F 3 "~" H 5850 7350 50  0001 C CNN
	1    5850 7350
	1    0    0    -1  
$EndComp
$Comp
L Device:D D8
U 1 1 5D4EE678
P 2850 7800
F 0 "D8" V 2896 7721 50  0000 R CNN
F 1 "MUR220G" V 2805 7721 50  0000 R CNN
F 2 "Diode_THT:D_DO-41_SOD81_P7.62mm_Horizontal" H 2850 7800 50  0001 C CNN
F 3 "~" H 2850 7800 50  0001 C CNN
	1    2850 7800
	0    -1   -1   0   
$EndComp
$Comp
L Device:D D9
U 1 1 5D4EE67E
P 3350 7800
F 0 "D9" V 3396 7721 50  0000 R CNN
F 1 "MUR220G" V 3305 7721 50  0000 R CNN
F 2 "Diode_THT:D_DO-41_SOD81_P7.62mm_Horizontal" H 3350 7800 50  0001 C CNN
F 3 "~" H 3350 7800 50  0001 C CNN
	1    3350 7800
	0    -1   -1   0   
$EndComp
$Comp
L Device:D D10
U 1 1 5D4EE684
P 2850 8400
F 0 "D10" V 2896 8321 50  0000 R CNN
F 1 "MUR220G" V 2805 8321 50  0000 R CNN
F 2 "Diode_THT:D_DO-41_SOD81_P7.62mm_Horizontal" H 2850 8400 50  0001 C CNN
F 3 "~" H 2850 8400 50  0001 C CNN
	1    2850 8400
	0    -1   -1   0   
$EndComp
$Comp
L Device:D D11
U 1 1 5D4EE68A
P 3350 8400
F 0 "D11" V 3396 8321 50  0000 R CNN
F 1 "MUR220G" V 3305 8321 50  0000 R CNN
F 2 "Diode_THT:D_DO-41_SOD81_P7.62mm_Horizontal" H 3350 8400 50  0001 C CNN
F 3 "~" H 3350 8400 50  0001 C CNN
	1    3350 8400
	0    -1   -1   0   
$EndComp
$Comp
L Device:C C22
U 1 1 5D4EE690
P 3900 7800
F 0 "C22" H 4015 7846 50  0000 L CNN
F 1 "0.1uF" H 4015 7755 50  0000 L CNN
F 2 "Capacitor_THT:C_Rect_L10.3mm_W5.7mm_P7.50mm_MKS4" H 3938 7650 50  0001 C CNN
F 3 "~" H 3900 7800 50  0001 C CNN
	1    3900 7800
	1    0    0    -1  
$EndComp
$Comp
L Device:C C25
U 1 1 5D4EE696
P 3900 8400
F 0 "C25" H 4015 8446 50  0000 L CNN
F 1 "0.1uF" H 4015 8355 50  0000 L CNN
F 2 "Capacitor_THT:C_Rect_L10.3mm_W5.7mm_P7.50mm_MKS4" H 3938 8250 50  0001 C CNN
F 3 "~" H 3900 8400 50  0001 C CNN
	1    3900 8400
	1    0    0    -1  
$EndComp
$Comp
L Device:C C21
U 1 1 5D4EE69C
P 2300 7800
F 0 "C21" H 2415 7846 50  0000 L CNN
F 1 "0.1uF" H 2415 7755 50  0000 L CNN
F 2 "Capacitor_THT:C_Rect_L10.3mm_W5.7mm_P7.50mm_MKS4" H 2338 7650 50  0001 C CNN
F 3 "~" H 2300 7800 50  0001 C CNN
	1    2300 7800
	1    0    0    -1  
$EndComp
$Comp
L Device:C C24
U 1 1 5D4EE6A2
P 2300 8400
F 0 "C24" H 2415 8446 50  0000 L CNN
F 1 "0.1uF" H 2415 8355 50  0000 L CNN
F 2 "Capacitor_THT:C_Rect_L10.3mm_W5.7mm_P7.50mm_MKS4" H 2338 8250 50  0001 C CNN
F 3 "~" H 2300 8400 50  0001 C CNN
	1    2300 8400
	1    0    0    -1  
$EndComp
Wire Wire Line
	2300 7950 2850 7950
Wire Wire Line
	3350 7950 3900 7950
Wire Wire Line
	2300 8250 2850 8250
Wire Wire Line
	3350 8250 3900 8250
Wire Wire Line
	3350 7950 3350 8150
Wire Wire Line
	2850 7950 2850 8050
Connection ~ 2850 8050
Wire Wire Line
	2850 8050 2850 8250
Connection ~ 3350 8150
Wire Wire Line
	3350 8150 3350 8250
Wire Wire Line
	3900 7650 4300 7650
Wire Wire Line
	4300 7650 4300 7950
Connection ~ 3900 7650
Wire Wire Line
	3900 8550 4300 8550
Wire Wire Line
	4300 8550 4300 8250
Connection ~ 3900 8550
Wire Wire Line
	4300 8550 4750 8550
Wire Wire Line
	5300 7550 5300 7250
Connection ~ 4300 8550
Wire Wire Line
	5300 6650 5300 6950
Wire Wire Line
	5300 6650 5850 6650
Wire Wire Line
	5850 6650 5850 6700
Wire Wire Line
	5850 7000 5850 7200
Wire Wire Line
	5850 7500 5850 7550
Connection ~ 4300 7650
Connection ~ 5850 6650
Connection ~ 5850 7550
Wire Wire Line
	2300 7650 2850 7650
Connection ~ 2850 7950
Connection ~ 2850 7650
Wire Wire Line
	2300 8550 2850 8550
Connection ~ 2850 8550
Connection ~ 2850 8250
Wire Wire Line
	2850 7650 3350 7650
Connection ~ 3350 7950
Connection ~ 3350 7650
Wire Wire Line
	3350 7650 3900 7650
Wire Wire Line
	2850 8550 3350 8550
Connection ~ 3350 8550
Wire Wire Line
	3350 8550 3900 8550
Connection ~ 3350 8250
Wire Wire Line
	5850 6650 6350 6650
Wire Wire Line
	6850 6850 6750 6850
Wire Wire Line
	6750 6850 6750 6750
Connection ~ 6750 6650
Wire Wire Line
	6750 6650 6850 6650
Wire Wire Line
	6850 6750 6750 6750
Connection ~ 6750 6750
Wire Wire Line
	6750 6750 6750 6650
$Comp
L Device:C C17
U 1 1 5D54B79C
P 6350 7100
F 0 "C17" H 6465 7146 50  0000 L CNN
F 1 "4.7uF" H 6465 7055 50  0000 L CNN
F 2 "Capacitor_SMD:C_0805_2012Metric_Pad1.15x1.40mm_HandSolder" H 6388 6950 50  0001 C CNN
F 3 "~" H 6350 7100 50  0001 C CNN
	1    6350 7100
	1    0    0    -1  
$EndComp
Wire Wire Line
	6350 6950 6350 6650
Connection ~ 6350 6650
Wire Wire Line
	6350 6650 6750 6650
Wire Wire Line
	6350 7250 6350 7550
Connection ~ 6350 7550
Wire Wire Line
	6350 7550 5850 7550
Wire Wire Line
	8550 6950 8550 7550
Wire Wire Line
	6350 7550 6850 7550
Wire Wire Line
	8450 6950 8550 6950
Wire Wire Line
	8550 6550 8550 6050
Wire Wire Line
	8550 6050 6750 6050
Wire Wire Line
	6750 6050 6750 6650
Wire Wire Line
	8450 6550 8550 6550
NoConn ~ 6850 6950
$Comp
L Device:R R11
U 1 1 5D574469
P 8900 7300
F 0 "R11" H 8970 7346 50  0000 L CNN
F 1 "147k" H 8970 7255 50  0000 L CNN
F 2 "Resistor_SMD:R_0805_2012Metric_Pad1.15x1.40mm_HandSolder" V 8830 7300 50  0001 C CNN
F 3 "~" H 8900 7300 50  0001 C CNN
	1    8900 7300
	1    0    0    -1  
$EndComp
$Comp
L Device:C C18
U 1 1 5D5748F2
P 9250 7300
F 0 "C18" H 9365 7346 50  0000 L CNN
F 1 "4.7uF" H 9365 7255 50  0000 L CNN
F 2 "Capacitor_SMD:C_0805_2012Metric_Pad1.15x1.40mm_HandSolder" H 9288 7150 50  0001 C CNN
F 3 "~" H 9250 7300 50  0001 C CNN
	1    9250 7300
	1    0    0    -1  
$EndComp
Wire Wire Line
	9250 7050 9250 7150
Wire Wire Line
	8900 7150 8900 7050
Connection ~ 8900 7050
Wire Wire Line
	8900 7050 9250 7050
Wire Wire Line
	8550 7550 8900 7550
Wire Wire Line
	9250 7550 9250 7450
Connection ~ 8550 7550
Wire Wire Line
	8900 7450 8900 7550
Connection ~ 8900 7550
Wire Wire Line
	8900 7550 9250 7550
$Comp
L Device:R R12
U 1 1 5D58A36E
P 9650 7300
F 0 "R12" H 9720 7346 50  0000 L CNN
F 1 "49.9k" H 9720 7255 50  0000 L CNN
F 2 "Resistor_SMD:R_0805_2012Metric_Pad1.15x1.40mm_HandSolder" V 9580 7300 50  0001 C CNN
F 3 "~" H 9650 7300 50  0001 C CNN
	1    9650 7300
	1    0    0    -1  
$EndComp
$Comp
L Device:R R10
U 1 1 5D58AB00
P 9650 6800
F 0 "R10" H 9720 6846 50  0000 L CNN
F 1 "453k" H 9720 6755 50  0000 L CNN
F 2 "Resistor_SMD:R_0805_2012Metric_Pad1.15x1.40mm_HandSolder" V 9580 6800 50  0001 C CNN
F 3 "~" H 9650 6800 50  0001 C CNN
	1    9650 6800
	1    0    0    -1  
$EndComp
Wire Wire Line
	9250 7550 9650 7550
Wire Wire Line
	9650 7550 9650 7450
Connection ~ 9250 7550
Wire Wire Line
	6850 7150 6850 7550
Connection ~ 6850 7550
Wire Wire Line
	6850 7550 8550 7550
Wire Wire Line
	6850 7050 6750 7050
Wire Wire Line
	6750 7050 6750 7650
Wire Wire Line
	6750 7650 9950 7650
Wire Wire Line
	9950 7650 9950 7050
Wire Wire Line
	9950 7050 9650 7050
Wire Wire Line
	9650 7050 9650 7150
Wire Wire Line
	9650 6950 9650 7050
Connection ~ 9650 7050
Wire Wire Line
	8450 6650 8550 6650
Wire Wire Line
	8450 6750 8550 6750
Wire Wire Line
	8550 6750 8550 6650
Connection ~ 8550 6650
$Comp
L Device:C C19
U 1 1 5D5B0C30
P 10150 7300
F 0 "C19" H 10265 7346 50  0000 L CNN
F 1 "10uF" H 10265 7255 50  0000 L CNN
F 2 "Capacitor_SMD:C_1206_3216Metric_Pad1.42x1.75mm_HandSolder" H 10188 7150 50  0001 C CNN
F 3 "~" H 10150 7300 50  0001 C CNN
	1    10150 7300
	1    0    0    -1  
$EndComp
$Comp
L Device:C C20
U 1 1 5D5B1954
P 10550 7300
F 0 "C20" H 10665 7346 50  0000 L CNN
F 1 "0uF" H 10665 7255 50  0000 L CNN
F 2 "Capacitor_SMD:C_1206_3216Metric_Pad1.42x1.75mm_HandSolder" H 10588 7150 50  0001 C CNN
F 3 "~" H 10550 7300 50  0001 C CNN
	1    10550 7300
	1    0    0    -1  
$EndComp
Wire Wire Line
	9650 7550 10150 7550
Wire Wire Line
	10550 7550 10550 7450
Connection ~ 9650 7550
Wire Wire Line
	10150 7450 10150 7550
Connection ~ 10150 7550
Wire Wire Line
	10150 7550 10550 7550
Wire Wire Line
	9500 6850 9500 7000
Connection ~ 9650 6650
Wire Wire Line
	6700 1450 6700 2950
NoConn ~ 8450 7150
NoConn ~ 6950 1850
$Comp
L LT3045EMSE:LT3045EMSE-1#PBF U2
U 1 1 5DA615B0
P 7850 4050
F 0 "U2" H 7800 4850 50  0000 L CNN
F 1 "LT3045EMSE" H 7600 4750 50  0000 L CNN
F 2 "Package_SO:MSOP-12-1EP_3x4mm_P0.65mm_EP1.65x2.85mm" H 7850 4050 50  0001 L BNN
F 3 "" H 7850 4050 50  0001 L BNN
F 4 "IC REG LINEAR 500MA 12MSOP" H 7850 4050 50  0001 L BNN "Field4"
F 5 "TSSOP-12 Linear Technology" H 7850 4050 50  0001 L BNN "Field5"
F 6 "Linear Technology" H 7850 4050 50  0001 L BNN "Field6"
F 7 "4.33 USD" H 7850 4050 50  0001 L BNN "Field7"
F 8 "LT3045EMSE-1#PBF" H 7850 4050 50  0001 L BNN "Field8"
	1    7850 4050
	1    0    0    -1  
$EndComp
$Comp
L Device:C C13
U 1 1 5DA615C2
P 5300 4400
F 0 "C13" H 5415 4446 50  0000 L CNN
F 1 "0.1uF" H 5415 4355 50  0000 L CNN
F 2 "Capacitor_SMD:C_0805_2012Metric_Pad1.15x1.40mm_HandSolder" H 5338 4250 50  0001 C CNN
F 3 "~" H 5300 4400 50  0001 C CNN
	1    5300 4400
	1    0    0    -1  
$EndComp
$Comp
L Device:LED D6
U 1 1 5DA615C8
P 5850 4150
F 0 "D6" V 5889 4033 50  0000 R CNN
F 1 "LED" V 5798 4033 50  0000 R CNN
F 2 "LED_SMD:LED_0805_2012Metric_Pad1.15x1.40mm_HandSolder" H 5850 4150 50  0001 C CNN
F 3 "~" H 5850 4150 50  0001 C CNN
	1    5850 4150
	0    -1   -1   0   
$EndComp
$Comp
L Device:R R7
U 1 1 5DA615CE
P 5850 4650
F 0 "R7" H 5920 4696 50  0000 L CNN
F 1 "1.8k" H 5920 4605 50  0000 L CNN
F 2 "Resistor_SMD:R_0805_2012Metric_Pad1.15x1.40mm_HandSolder" V 5780 4650 50  0001 C CNN
F 3 "~" H 5850 4650 50  0001 C CNN
	1    5850 4650
	1    0    0    -1  
$EndComp
Wire Wire Line
	5300 4850 5300 4550
Wire Wire Line
	5300 3950 5300 4250
Wire Wire Line
	5300 3950 5850 3950
Wire Wire Line
	5850 3950 5850 4000
Wire Wire Line
	5850 4300 5850 4500
Wire Wire Line
	5850 4800 5850 4850
Wire Wire Line
	5850 4850 5300 4850
$Comp
L Device:C C14
U 1 1 5DA61631
P 6400 4400
F 0 "C14" H 6515 4446 50  0000 L CNN
F 1 "4.7uF" H 6515 4355 50  0000 L CNN
F 2 "Capacitor_SMD:C_0805_2012Metric_Pad1.15x1.40mm_HandSolder" H 6438 4250 50  0001 C CNN
F 3 "~" H 6400 4400 50  0001 C CNN
	1    6400 4400
	1    0    0    -1  
$EndComp
Wire Wire Line
	5850 3950 6400 3950
Wire Wire Line
	6400 3950 6400 4250
Connection ~ 5850 3950
Wire Wire Line
	6400 4550 6400 4850
Wire Wire Line
	6400 4850 5850 4850
Connection ~ 5850 4850
Wire Wire Line
	6400 3950 6850 3950
Connection ~ 6400 3950
Wire Wire Line
	6950 3750 6850 3750
Wire Wire Line
	6850 3750 6850 3950
Connection ~ 6850 3950
Wire Wire Line
	6850 3950 6950 3950
Wire Wire Line
	6400 4850 8850 4850
Wire Wire Line
	8850 4850 8850 4450
Wire Wire Line
	8850 4450 8750 4450
Connection ~ 6400 4850
Wire Wire Line
	6850 3950 6850 4050
Wire Wire Line
	6950 4050 6850 4050
Connection ~ 6850 4050
Wire Wire Line
	6850 4050 6850 4150
Wire Wire Line
	6950 4150 6850 4150
Wire Wire Line
	6950 3850 6700 3850
Wire Wire Line
	6400 4850 6400 5350
Wire Wire Line
	6400 5350 6700 5350
Wire Wire Line
	8750 3550 8850 3550
Wire Wire Line
	8850 3550 8850 4450
Connection ~ 8850 4450
$Comp
L Device:R R8
U 1 1 5DA61652
P 8950 5100
F 0 "R8" H 9020 5146 50  0000 L CNN
F 1 "147k" H 9020 5055 50  0000 L CNN
F 2 "Resistor_SMD:R_0805_2012Metric_Pad1.15x1.40mm_HandSolder" V 8880 5100 50  0001 C CNN
F 3 "~" H 8950 5100 50  0001 C CNN
	1    8950 5100
	1    0    0    -1  
$EndComp
Wire Wire Line
	8750 4150 8950 4150
Wire Wire Line
	8950 4150 8950 4850
$Comp
L Device:C C15
U 1 1 5DA6165A
P 9300 5100
F 0 "C15" H 9415 5146 50  0000 L CNN
F 1 "4.7uF" H 9415 5055 50  0000 L CNN
F 2 "Capacitor_SMD:C_0805_2012Metric_Pad1.15x1.40mm_HandSolder" H 9338 4950 50  0001 C CNN
F 3 "~" H 9300 5100 50  0001 C CNN
	1    9300 5100
	1    0    0    -1  
$EndComp
Wire Wire Line
	8950 4850 9300 4850
Wire Wire Line
	9300 4850 9300 4950
Connection ~ 8950 4850
Wire Wire Line
	8950 4850 8950 4950
Wire Wire Line
	6700 5350 8950 5350
Wire Wire Line
	9300 5350 9300 5250
Connection ~ 6700 5350
Wire Wire Line
	8950 5250 8950 5350
Connection ~ 8950 5350
Wire Wire Line
	8950 5350 9300 5350
$Comp
L Device:C C11
U 1 1 5DA6166A
P 10100 4250
F 0 "C11" H 10215 4296 50  0000 L CNN
F 1 "10uF" H 10215 4205 50  0000 L CNN
F 2 "Capacitor_SMD:C_1206_3216Metric_Pad1.42x1.75mm_HandSolder" H 10138 4100 50  0001 C CNN
F 3 "~" H 10100 4250 50  0001 C CNN
	1    10100 4250
	1    0    0    -1  
$EndComp
$Comp
L Device:R R9
U 1 1 5DA61670
P 9700 5100
F 0 "R9" H 9770 5146 50  0000 L CNN
F 1 "49.9k" H 9770 5055 50  0000 L CNN
F 2 "Resistor_SMD:R_0805_2012Metric_Pad1.15x1.40mm_HandSolder" V 9630 5100 50  0001 C CNN
F 3 "~" H 9700 5100 50  0001 C CNN
	1    9700 5100
	1    0    0    -1  
$EndComp
$Comp
L Device:R R6
U 1 1 5DA61676
P 9700 4600
F 0 "R6" H 9770 4646 50  0000 L CNN
F 1 "453k" H 9770 4555 50  0000 L CNN
F 2 "Resistor_SMD:R_0805_2012Metric_Pad1.15x1.40mm_HandSolder" V 9630 4600 50  0001 C CNN
F 3 "~" H 9700 4600 50  0001 C CNN
	1    9700 4600
	1    0    0    -1  
$EndComp
Wire Wire Line
	9700 4750 9700 4850
Wire Wire Line
	9300 5350 9700 5350
Wire Wire Line
	9700 5350 9700 5250
Connection ~ 9300 5350
Wire Wire Line
	8750 4050 9050 4050
Wire Wire Line
	9050 4050 9050 4750
Wire Wire Line
	9050 4750 9400 4750
Wire Wire Line
	9400 4750 9400 4850
Wire Wire Line
	9400 4850 9700 4850
Connection ~ 9700 4850
Wire Wire Line
	9700 4850 9700 4950
Wire Wire Line
	9700 3750 9700 4450
Wire Wire Line
	8750 3850 8750 3750
Wire Wire Line
	8750 3750 9700 3750
$Comp
L Device:C C12
U 1 1 5DA6168B
P 10550 4250
F 0 "C12" H 10665 4296 50  0000 L CNN
F 1 "0uF" H 10665 4205 50  0000 L CNN
F 2 "Capacitor_SMD:C_1206_3216Metric_Pad1.42x1.75mm_HandSolder" H 10588 4100 50  0001 C CNN
F 3 "~" H 10550 4250 50  0001 C CNN
	1    10550 4250
	1    0    0    -1  
$EndComp
Wire Wire Line
	9700 5350 10100 5350
Wire Wire Line
	10100 5350 10100 4400
Connection ~ 9700 5350
Wire Wire Line
	10550 5350 10100 5350
Wire Wire Line
	10550 4400 10550 5350
Connection ~ 10100 5350
Connection ~ 9700 3750
Wire Wire Line
	10100 4100 10100 3950
Wire Wire Line
	8750 3950 10100 3950
Wire Wire Line
	10550 3750 10950 3750
Connection ~ 10550 3750
Wire Wire Line
	6700 3850 6700 5350
NoConn ~ 6950 4250
$Comp
L Device:C C26
U 1 1 5DB7198C
P 5300 9100
F 0 "C26" H 5415 9146 50  0000 L CNN
F 1 "0.1uF" H 5415 9055 50  0000 L CNN
F 2 "Capacitor_SMD:C_0805_2012Metric_Pad1.15x1.40mm_HandSolder" H 5338 8950 50  0001 C CNN
F 3 "~" H 5300 9100 50  0001 C CNN
	1    5300 9100
	1    0    0    -1  
$EndComp
$Comp
L Device:LED D12
U 1 1 5DB71992
P 5850 8850
F 0 "D12" V 5797 8928 50  0000 L CNN
F 1 "LED" V 5888 8928 50  0000 L CNN
F 2 "LED_SMD:LED_0805_2012Metric_Pad1.15x1.40mm_HandSolder" H 5850 8850 50  0001 C CNN
F 3 "~" H 5850 8850 50  0001 C CNN
	1    5850 8850
	0    1    1    0   
$EndComp
$Comp
L Device:R R18
U 1 1 5DB71998
P 5850 9350
F 0 "R18" H 5920 9396 50  0000 L CNN
F 1 "1.8k" H 5920 9305 50  0000 L CNN
F 2 "Resistor_SMD:R_0805_2012Metric_Pad1.15x1.40mm_HandSolder" V 5780 9350 50  0001 C CNN
F 3 "~" H 5850 9350 50  0001 C CNN
	1    5850 9350
	1    0    0    -1  
$EndComp
Wire Wire Line
	5300 9550 5300 9250
Wire Wire Line
	5300 8650 5300 8950
Wire Wire Line
	5300 8650 5850 8650
Wire Wire Line
	5850 8650 5850 8700
Wire Wire Line
	5850 9000 5850 9200
Wire Wire Line
	5850 9500 5850 9550
Wire Wire Line
	5850 9550 5300 9550
Connection ~ 5850 8650
Connection ~ 5850 9550
$Comp
L LT3094EMSE:LT3094EMSE U4
U 1 1 5DB719FD
P 6850 8650
F 0 "U4" H 7650 9137 60  0000 C CNN
F 1 "LT3094EMSE" H 7650 9031 60  0000 C CNN
F 2 "Package_SO:MSOP-12-1EP_3x4mm_P0.65mm_EP1.65x2.85mm" H 7650 8990 60  0001 C CNN
F 3 "" H 6850 8650 60  0000 C CNN
	1    6850 8650
	1    0    0    -1  
$EndComp
Wire Wire Line
	5850 8650 6350 8650
Wire Wire Line
	6850 8850 6750 8850
Wire Wire Line
	6750 8850 6750 8750
Connection ~ 6750 8650
Wire Wire Line
	6750 8650 6850 8650
Wire Wire Line
	6850 8750 6750 8750
Connection ~ 6750 8750
Wire Wire Line
	6750 8750 6750 8650
$Comp
L Device:C C27
U 1 1 5DB71A0B
P 6350 9100
F 0 "C27" H 6465 9146 50  0000 L CNN
F 1 "4.7uF" H 6465 9055 50  0000 L CNN
F 2 "Capacitor_SMD:C_0805_2012Metric_Pad1.15x1.40mm_HandSolder" H 6388 8950 50  0001 C CNN
F 3 "~" H 6350 9100 50  0001 C CNN
	1    6350 9100
	1    0    0    -1  
$EndComp
Wire Wire Line
	6350 8950 6350 8650
Connection ~ 6350 8650
Wire Wire Line
	6350 8650 6750 8650
Wire Wire Line
	6350 9250 6350 9550
Connection ~ 6350 9550
Wire Wire Line
	6350 9550 5850 9550
Wire Wire Line
	8550 8950 8550 9550
Wire Wire Line
	6350 9550 6850 9550
Wire Wire Line
	8450 8950 8550 8950
Wire Wire Line
	8550 8550 8550 8050
Wire Wire Line
	8550 8050 6750 8050
Wire Wire Line
	6750 8050 6750 8650
Wire Wire Line
	8450 8550 8550 8550
NoConn ~ 6850 8950
$Comp
L Device:R R16
U 1 1 5DB71A1F
P 8900 9300
F 0 "R16" H 8970 9346 50  0000 L CNN
F 1 "147k" H 8970 9255 50  0000 L CNN
F 2 "Resistor_SMD:R_0805_2012Metric_Pad1.15x1.40mm_HandSolder" V 8830 9300 50  0001 C CNN
F 3 "~" H 8900 9300 50  0001 C CNN
	1    8900 9300
	1    0    0    -1  
$EndComp
$Comp
L Device:C C28
U 1 1 5DB71A25
P 9250 9300
F 0 "C28" H 9365 9346 50  0000 L CNN
F 1 "4.7uF" H 9365 9255 50  0000 L CNN
F 2 "Capacitor_SMD:C_0805_2012Metric_Pad1.15x1.40mm_HandSolder" H 9288 9150 50  0001 C CNN
F 3 "~" H 9250 9300 50  0001 C CNN
	1    9250 9300
	1    0    0    -1  
$EndComp
Wire Wire Line
	8450 9050 8900 9050
Wire Wire Line
	9250 9050 9250 9150
Wire Wire Line
	8900 9150 8900 9050
Connection ~ 8900 9050
Wire Wire Line
	8900 9050 9250 9050
Wire Wire Line
	8550 9550 8900 9550
Wire Wire Line
	9250 9550 9250 9450
Connection ~ 8550 9550
Wire Wire Line
	8900 9450 8900 9550
Connection ~ 8900 9550
Wire Wire Line
	8900 9550 9250 9550
$Comp
L Device:R R17
U 1 1 5DB71A36
P 9650 9300
F 0 "R17" H 9720 9346 50  0000 L CNN
F 1 "49.9k" H 9720 9255 50  0000 L CNN
F 2 "Resistor_SMD:R_0805_2012Metric_Pad1.15x1.40mm_HandSolder" V 9580 9300 50  0001 C CNN
F 3 "~" H 9650 9300 50  0001 C CNN
	1    9650 9300
	1    0    0    -1  
$EndComp
$Comp
L Device:R R15
U 1 1 5DB71A3C
P 9650 8800
F 0 "R15" H 9720 8846 50  0000 L CNN
F 1 "453k" H 9720 8755 50  0000 L CNN
F 2 "Resistor_SMD:R_0805_2012Metric_Pad1.15x1.40mm_HandSolder" V 9580 8800 50  0001 C CNN
F 3 "~" H 9650 8800 50  0001 C CNN
	1    9650 8800
	1    0    0    -1  
$EndComp
Wire Wire Line
	9250 9550 9650 9550
Wire Wire Line
	9650 9550 9650 9450
Connection ~ 9250 9550
Wire Wire Line
	6850 9150 6850 9550
Connection ~ 6850 9550
Wire Wire Line
	6850 9550 8550 9550
Wire Wire Line
	6850 9050 6750 9050
Wire Wire Line
	6750 9050 6750 9650
Wire Wire Line
	6750 9650 9950 9650
Wire Wire Line
	9950 9650 9950 9050
Wire Wire Line
	9950 9050 9650 9050
Wire Wire Line
	9650 9050 9650 9150
Wire Wire Line
	9650 8950 9650 9050
Connection ~ 9650 9050
Wire Wire Line
	8450 8650 8550 8650
Wire Wire Line
	8450 8750 8550 8750
Wire Wire Line
	8550 8750 8550 8650
Connection ~ 8550 8650
Wire Wire Line
	8550 8650 9650 8650
$Comp
L Device:C C29
U 1 1 5DB71A55
P 10150 9300
F 0 "C29" H 10265 9346 50  0000 L CNN
F 1 "10uF" H 10265 9255 50  0000 L CNN
F 2 "Capacitor_SMD:C_1206_3216Metric_Pad1.42x1.75mm_HandSolder" H 10188 9150 50  0001 C CNN
F 3 "~" H 10150 9300 50  0001 C CNN
	1    10150 9300
	1    0    0    -1  
$EndComp
$Comp
L Device:C C30
U 1 1 5DB71A5B
P 10550 9300
F 0 "C30" H 10665 9346 50  0000 L CNN
F 1 "0uF" H 10665 9255 50  0000 L CNN
F 2 "Capacitor_SMD:C_1206_3216Metric_Pad1.42x1.75mm_HandSolder" H 10588 9150 50  0001 C CNN
F 3 "~" H 10550 9300 50  0001 C CNN
	1    10550 9300
	1    0    0    -1  
$EndComp
Wire Wire Line
	9650 9550 10150 9550
Wire Wire Line
	10550 9550 10550 9450
Connection ~ 9650 9550
Wire Wire Line
	10150 9450 10150 9550
Connection ~ 10150 9550
Wire Wire Line
	10150 9550 10550 9550
Wire Wire Line
	9500 8850 9500 9000
Wire Wire Line
	9500 9000 10150 9000
Wire Wire Line
	10150 9150 10150 9000
Wire Wire Line
	8450 8850 9500 8850
Connection ~ 9650 8650
NoConn ~ 8450 9150
Text GLabel 11200 1350 2    50   Output ~ 0
LVCC+
Text GLabel 11200 3750 2    50   Output ~ 0
RVCC+
Text GLabel 11500 6650 2    50   Output ~ 0
LVCC-
Text GLabel 11550 8650 2    50   Output ~ 0
RVCC-
Connection ~ 10550 7550
Wire Wire Line
	5300 1550 4300 1550
Wire Wire Line
	4300 1550 4300 2750
Connection ~ 5300 1550
Wire Wire Line
	5300 2450 4800 2450
Wire Wire Line
	4800 2450 4800 3650
Connection ~ 5300 2450
Connection ~ 4800 3650
Wire Wire Line
	5300 3950 5300 2750
Wire Wire Line
	4300 2750 5300 2750
Connection ~ 5300 3950
Wire Wire Line
	5300 4850 4800 4850
Wire Wire Line
	4800 4850 4800 3650
Connection ~ 5300 4850
Wire Wire Line
	5300 6650 4300 6650
Wire Wire Line
	4300 6650 4300 7650
Connection ~ 5300 6650
Wire Wire Line
	4750 8550 4750 7550
Wire Wire Line
	4750 7550 5300 7550
Connection ~ 4750 8550
Connection ~ 5300 7550
Wire Wire Line
	5300 7550 5850 7550
Wire Wire Line
	5300 7650 5300 8650
Wire Wire Line
	4300 7650 5300 7650
Connection ~ 5300 8650
Wire Wire Line
	4750 8550 4750 9550
Wire Wire Line
	4750 9550 5300 9550
Connection ~ 5300 9550
$Comp
L Device:R R1
U 1 1 5DA8CC9A
P 10950 1850
F 0 "R1" H 11020 1896 50  0000 L CNN
F 1 "0" H 11020 1805 50  0000 L CNN
F 2 "Resistor_SMD:R_0805_2012Metric_Pad1.15x1.40mm_HandSolder" V 10880 1850 50  0001 C CNN
F 3 "~" H 10950 1850 50  0001 C CNN
	1    10950 1850
	1    0    0    -1  
$EndComp
Wire Wire Line
	10950 1700 10950 1350
Connection ~ 10950 1350
Wire Wire Line
	10950 2000 10950 3750
Connection ~ 10950 3750
Wire Wire Line
	10950 1350 11200 1350
Wire Wire Line
	10950 3750 11200 3750
$Comp
L Device:R R13
U 1 1 5DAEC5A2
P 11000 7300
F 0 "R13" H 11070 7346 50  0000 L CNN
F 1 "0" H 11070 7255 50  0000 L CNN
F 2 "Resistor_SMD:R_0805_2012Metric_Pad1.15x1.40mm_HandSolder" V 10930 7300 50  0001 C CNN
F 3 "~" H 11000 7300 50  0001 C CNN
	1    11000 7300
	1    0    0    -1  
$EndComp
Wire Wire Line
	11000 7450 11000 8650
Connection ~ 11000 8650
Wire Wire Line
	11000 8650 11550 8650
Wire Wire Line
	11000 7150 11000 6650
Connection ~ 11000 6650
Wire Wire Line
	11000 6650 11500 6650
Wire Wire Line
	9500 7000 10150 7000
Connection ~ 10550 6650
Wire Wire Line
	10550 6650 11000 6650
Wire Wire Line
	10150 7150 10150 7000
Connection ~ 10550 8650
Wire Wire Line
	10550 8650 11000 8650
Wire Wire Line
	9650 8650 10550 8650
Wire Wire Line
	10550 8650 10550 9150
Wire Wire Line
	9650 6650 10550 6650
Wire Wire Line
	10550 6650 10550 7150
Wire Wire Line
	9700 1350 10550 1350
Wire Wire Line
	10550 1350 10550 1700
Wire Wire Line
	9700 3750 10550 3750
Wire Wire Line
	10550 3750 10550 4100
Wire Wire Line
	8450 7050 8900 7050
Wire Wire Line
	8450 6850 9500 6850
Wire Wire Line
	8550 6650 9650 6650
$Comp
L LT3094EMSE:LT3094EMSE U3
U 1 1 5D5205EE
P 6850 6650
F 0 "U3" H 7650 7137 60  0000 C CNN
F 1 "LT3094EMSE" H 7650 7031 60  0000 C CNN
F 2 "Package_SO:MSOP-12-1EP_3x4mm_P0.65mm_EP1.65x2.85mm" H 7650 6990 60  0001 C CNN
F 3 "" H 6850 6650 60  0000 C CNN
	1    6850 6650
	1    0    0    -1  
$EndComp
$Comp
L Regulator_Linear:LM7812_TO220 U5
U 1 1 5EB0C03A
P 5550 5700
F 0 "U5" H 5550 5942 50  0000 C CNN
F 1 "LM7812_TO220" H 5550 5851 50  0000 C CNN
F 2 "Package_TO_SOT_THT:TO-220-3_Vertical" H 5550 5925 50  0001 C CIN
F 3 "http://www.fairchildsemi.com/ds/LM/LM7805.pdf" H 5550 5650 50  0001 C CNN
	1    5550 5700
	1    0    0    -1  
$EndComp
$Comp
L Device:C C33
U 1 1 5EB0F937
P 6050 5950
F 0 "C33" H 6165 5996 50  0000 L CNN
F 1 "0.1uF" H 6165 5905 50  0000 L CNN
F 2 "Capacitor_SMD:C_0805_2012Metric_Pad1.15x1.40mm_HandSolder" H 6088 5800 50  0001 C CNN
F 3 "~" H 6050 5950 50  0001 C CNN
	1    6050 5950
	1    0    0    -1  
$EndComp
Wire Wire Line
	5300 3950 5050 3950
Wire Wire Line
	5050 3950 5050 5700
Wire Wire Line
	5050 5700 5250 5700
$Comp
L Device:C C32
U 1 1 5EB0F52C
P 5050 5950
F 0 "C32" H 4800 6000 50  0000 L CNN
F 1 "0.1uF" H 4750 5950 50  0000 L TNN
F 2 "Capacitor_SMD:C_0805_2012Metric_Pad1.15x1.40mm_HandSolder" H 5088 5800 50  0001 C CNN
F 3 "~" H 5050 5950 50  0001 C CNN
	1    5050 5950
	-1   0    0    -1  
$EndComp
Wire Wire Line
	5050 5800 5050 5700
Connection ~ 5050 5700
Wire Wire Line
	5050 6100 5050 6200
Wire Wire Line
	5050 6200 5550 6200
Wire Wire Line
	6050 6200 6050 6100
Connection ~ 5550 6200
Wire Wire Line
	5550 6200 6050 6200
Wire Wire Line
	5550 6200 5550 6000
Wire Wire Line
	5850 5700 6050 5700
Wire Wire Line
	6050 5700 6050 5800
$Comp
L Regulator_Linear:LM7912_TO220 U6
U 1 1 5EB0CE16
P 5550 10250
F 0 "U6" H 5550 10101 50  0000 C CNN
F 1 "LM7912_TO220" H 5550 10010 50  0000 C CNN
F 2 "Package_TO_SOT_THT:TO-220-3_Vertical" H 5550 10050 50  0001 C CIN
F 3 "http://www.fairchildsemi.com/ds/LM/LM7905.pdf" H 5550 10250 50  0001 C CNN
	1    5550 10250
	1    0    0    1   
$EndComp
$Comp
L Device:C C31
U 1 1 5EC0755C
P 5000 10500
F 0 "C31" H 5115 10546 50  0000 L CNN
F 1 "0.1uF" H 5115 10455 50  0000 L CNN
F 2 "Capacitor_SMD:C_0805_2012Metric_Pad1.15x1.40mm_HandSolder" H 5038 10350 50  0001 C CNN
F 3 "~" H 5000 10500 50  0001 C CNN
	1    5000 10500
	1    0    0    1   
$EndComp
$Comp
L Device:C C34
U 1 1 5EC078CE
P 6050 10500
F 0 "C34" H 6165 10546 50  0000 L CNN
F 1 "0.1uF" H 6165 10455 50  0000 L CNN
F 2 "Capacitor_SMD:C_0805_2012Metric_Pad1.15x1.40mm_HandSolder" H 6088 10350 50  0001 C CNN
F 3 "~" H 6050 10500 50  0001 C CNN
	1    6050 10500
	1    0    0    1   
$EndComp
Wire Wire Line
	5850 10250 6050 10250
Wire Wire Line
	6050 10250 6050 10350
Wire Wire Line
	5000 10350 5000 10250
Wire Wire Line
	5000 10250 5250 10250
Wire Wire Line
	5000 10650 5000 10750
Wire Wire Line
	5000 10750 5550 10750
Wire Wire Line
	6050 10750 6050 10650
Wire Wire Line
	5550 10550 5550 10750
Connection ~ 5550 10750
Wire Wire Line
	5550 10750 6050 10750
Wire Wire Line
	5300 8650 5000 8650
Wire Wire Line
	5000 8650 5000 10250
Connection ~ 5000 10250
$Comp
L RCJ-2134:RCJ-2134 J2
U 1 1 5EB0FBC4
P 12750 1050
F 0 "J2" V 13404 1178 50  0000 L CNN
F 1 "RCJ-2134" V 13495 1178 50  0000 L CNN
F 2 "RCJ-2134:RCJ2134_2" H 14000 1150 50  0001 L CNN
F 3 "https://componentsearchengine.com/Datasheets/1/RCJ-2134.pdf" H 14000 1050 50  0001 L CNN
F 4 "RCA Phono Connectors RCA jack, 2P, 1 x 2, horizontal, through hole, YL/WH" H 14000 950 50  0001 L CNN "Description"
F 5 "20.2" H 14000 850 50  0001 L CNN "Height"
F 6 "490-RCJ-2134" H 14000 750 50  0001 L CNN "Mouser Part Number"
F 7 "https://www.mouser.com/Search/Refine.aspx?Keyword=490-RCJ-2134" H 14000 650 50  0001 L CNN "Mouser Price/Stock"
F 8 "CUI" H 14000 550 50  0001 L CNN "Manufacturer_Name"
F 9 "RCJ-2134" H 14000 450 50  0001 L CNN "Manufacturer_Part_Number"
	1    12750 1050
	0    1    1    0   
$EndComp
Connection ~ 8750 1350
Connection ~ 8750 3750
$Comp
L Connector:Conn_01x06_Male J3
U 1 1 5EBCA675
P 14100 1800
F 0 "J3" H 14072 1728 50  0000 R CNN
F 1 "Conn_01x06_Male" H 14072 1773 50  0001 R CNN
F 2 "Connector_PinHeader_2.54mm:PinHeader_1x06_P2.54mm_Vertical" H 14100 1800 50  0001 C CNN
F 3 "~" H 14100 1800 50  0001 C CNN
	1    14100 1800
	-1   0    0    1   
$EndComp
Wire Wire Line
	12750 1050 12750 1000
Wire Wire Line
	12750 1000 13600 1000
Wire Wire Line
	13600 1000 13600 1500
Wire Wire Line
	13600 1700 13900 1700
Wire Wire Line
	13900 1500 13600 1500
Connection ~ 13600 1500
Wire Wire Line
	13600 1500 13600 1700
Wire Wire Line
	12750 2450 12750 2500
Wire Wire Line
	12750 2500 13650 2500
Wire Wire Line
	13650 2500 13650 1600
Wire Wire Line
	13650 1600 13900 1600
Wire Wire Line
	12650 2450 12650 2550
Wire Wire Line
	12650 2550 13700 2550
Wire Wire Line
	13700 2550 13700 1900
Wire Wire Line
	13700 1900 13900 1900
Wire Wire Line
	13900 1800 13550 1800
Wire Wire Line
	13550 1800 13550 950 
Wire Wire Line
	13550 950  12650 950 
Wire Wire Line
	12650 950  12650 1050
Wire Wire Line
	13900 2000 13550 2000
Wire Wire Line
	13550 2000 13550 1800
Connection ~ 13550 1800
$Comp
L Connector:Conn_01x04_Male J6
U 1 1 5ECB4454
P 14100 4150
F 0 "J6" H 14072 4032 50  0000 R CNN
F 1 "AUX power" H 14072 4123 50  0000 R CNN
F 2 "Connector_PinHeader_2.54mm:PinHeader_1x04_P2.54mm_Vertical" H 14100 4150 50  0001 C CNN
F 3 "~" H 14100 4150 50  0001 C CNN
	1    14100 4150
	-1   0    0    1   
$EndComp
Text GLabel 11200 2950 2    50   Output ~ 0
LGND+
Wire Wire Line
	10550 2950 11200 2950
Connection ~ 10550 2950
Text GLabel 11200 5350 2    50   Output ~ 0
RGND+
Wire Wire Line
	10550 5350 11200 5350
Connection ~ 10550 5350
Text GLabel 11550 9550 2    50   Output ~ 0
RGND-
Wire Wire Line
	10550 9550 11550 9550
Connection ~ 10550 9550
Text GLabel 11500 7550 2    50   Output ~ 0
LGND-
Wire Wire Line
	10550 7550 11500 7550
Text GLabel 6550 10750 2    50   Output ~ 0
GND-
Wire Wire Line
	6050 10750 6550 10750
Connection ~ 6050 10750
Text GLabel 6550 10250 2    50   Output ~ 0
VCC-
Wire Wire Line
	6550 10250 6050 10250
Connection ~ 6050 10250
Text GLabel 6400 5700 2    50   Output ~ 0
VCC+
Text GLabel 6400 6200 2    50   Output ~ 0
GND+
Wire Wire Line
	6400 5700 6050 5700
Connection ~ 6050 5700
Wire Wire Line
	6400 6200 6050 6200
Connection ~ 6050 6200
Text GLabel 13650 3500 0    50   Input ~ 0
LVCC+
Text GLabel 13650 3600 0    50   Input ~ 0
LGND+
Text GLabel 13650 3050 0    50   Input ~ 0
RVCC+
Text GLabel 13650 3150 0    50   Input ~ 0
RGND+
Text GLabel 13650 3300 0    50   Input ~ 0
LVCC-
Text GLabel 13650 3400 0    50   Input ~ 0
LGND-
Text GLabel 13650 2850 0    50   Input ~ 0
RVCC-
Text GLabel 13650 2950 0    50   Input ~ 0
RGND-
Text GLabel 13650 4050 0    50   Input ~ 0
GND-
Text GLabel 13650 3950 0    50   Input ~ 0
VCC-
Text GLabel 13650 4250 0    50   Input ~ 0
GND+
Text GLabel 13650 4150 0    50   Input ~ 0
VCC+
Wire Wire Line
	13650 4150 13900 4150
Wire Wire Line
	13650 4250 13900 4250
Wire Wire Line
	13650 3950 13900 3950
Wire Wire Line
	13650 4050 13900 4050
$Comp
L 70053K:70053K T1
U 1 1 5EB292DD
P 1100 5350
F 0 "T1" H 1800 5615 50  0000 C CNN
F 1 "70052K" H 1800 5524 50  0000 C CNN
F 2 "70053K:70053K" H 2350 5450 50  0001 L CNN
F 3 "https://docs-emea.rs-online.com/webdocs/13d6/0900766b813d68a0.pdf" H 2350 5350 50  0001 L CNN
F 4 "2 Output Toroidal Transformer, 15VA, 2 x 15V ac" H 2350 5250 50  0001 L CNN "Description"
F 5 "" H 2350 5150 50  0001 L CNN "Height"
F 6 "Nuvotem Talema" H 2350 5050 50  0001 L CNN "Manufacturer_Name"
F 7 "70053K" H 2350 4950 50  0001 L CNN "Manufacturer_Part_Number"
F 8 "" H 2350 4850 50  0001 L CNN "Mouser Part Number"
F 9 "" H 2350 4750 50  0001 L CNN "Mouser Price/Stock"
F 10 "2239345" H 2350 4650 50  0001 L CNN "RS Part Number"
F 11 "http://uk.rs-online.com/web/p/products/2239345" H 2350 4550 50  0001 L CNN "RS Price/Stock"
	1    1100 5350
	1    0    0    -1  
$EndComp
Wire Wire Line
	1100 5750 1100 5650
Wire Wire Line
	2500 5350 2750 5350
Wire Wire Line
	2500 5450 3250 5450
Wire Wire Line
	3250 5450 3250 3250
Wire Wire Line
	3250 3250 3350 3250
Wire Wire Line
	2500 5550 3250 5550
Wire Wire Line
	3250 5550 3250 8150
Wire Wire Line
	3250 8150 3350 8150
Wire Wire Line
	2500 5650 2750 5650
Wire Wire Line
	2750 5650 2750 8050
Wire Wire Line
	2750 8050 2850 8050
Wire Wire Line
	2750 3150 2750 5350
Wire Wire Line
	2750 3150 2850 3150
$Comp
L Connector:Conn_01x04_Male J5
U 1 1 5EBA1DBE
P 14100 3500
F 0 "J5" H 14072 3382 50  0000 R CNN
F 1 "Left power" H 14072 3473 50  0000 R CNN
F 2 "Connector_PinHeader_2.54mm:PinHeader_1x04_P2.54mm_Vertical" H 14100 3500 50  0001 C CNN
F 3 "~" H 14100 3500 50  0001 C CNN
	1    14100 3500
	-1   0    0    1   
$EndComp
$Comp
L Connector:Conn_01x04_Male J4
U 1 1 5EBA2B3D
P 14100 3050
F 0 "J4" H 14072 2932 50  0000 R CNN
F 1 "Right power" H 14072 3023 50  0000 R CNN
F 2 "Connector_PinHeader_2.54mm:PinHeader_1x04_P2.54mm_Vertical" H 14100 3050 50  0001 C CNN
F 3 "~" H 14100 3050 50  0001 C CNN
	1    14100 3050
	-1   0    0    1   
$EndComp
Wire Wire Line
	13650 2850 13900 2850
Wire Wire Line
	13900 2950 13650 2950
Wire Wire Line
	13650 3050 13900 3050
Wire Wire Line
	13900 3150 13650 3150
Wire Wire Line
	13650 3300 13900 3300
Wire Wire Line
	13900 3400 13650 3400
Wire Wire Line
	13650 3500 13900 3500
Wire Wire Line
	13900 3600 13650 3600
$Comp
L Connector:Screw_Terminal_01x03 J1
U 1 1 5ED651A2
P 750 5650
F 0 "J1" H 668 5417 50  0000 C CNN
F 1 "Screw_Terminal_01x03" H 830 5601 50  0001 L CNN
F 2 "TerminalBlock:TerminalBlock_bornier-3_P5.08mm" H 750 5650 50  0001 C CNN
F 3 "~" H 750 5650 50  0001 C CNN
	1    750  5650
	-1   0    0    1   
$EndComp
$Comp
L power:Earth_Protective #PWR0101
U 1 1 5ED8CFC6
P 750 5950
F 0 "#PWR0101" H 1000 5700 50  0001 C CNN
F 1 "Earth_Protective" H 1200 5800 50  0001 C CNN
F 2 "" H 750 5850 50  0001 C CNN
F 3 "~" H 750 5850 50  0001 C CNN
	1    750  5950
	1    0    0    -1  
$EndComp
Wire Wire Line
	950  5550 1100 5550
Wire Wire Line
	950  5750 1050 5750
Wire Wire Line
	1050 5750 1050 5850
Wire Wire Line
	1050 5850 1100 5850
Wire Wire Line
	950  5650 1000 5650
Wire Wire Line
	1000 5650 1000 5850
Wire Wire Line
	1000 5850 750  5850
Wire Wire Line
	750  5850 750  5950
$Comp
L Connector:Conn_01x02_Male J7
U 1 1 5EF1BD04
P 2300 1550
F 0 "J7" H 2272 1432 50  0000 R CNN
F 1 "POWER LED" H 2272 1523 50  0000 R CNN
F 2 "Connector_PinHeader_2.54mm:PinHeader_1x02_P2.54mm_Vertical" H 2300 1550 50  0001 C CNN
F 3 "~" H 2300 1550 50  0001 C CNN
	1    2300 1550
	1    0    0    -1  
$EndComp
$Comp
L Device:R R19
U 1 1 5EF1CEF0
P 2850 1650
F 0 "R19" V 2643 1650 50  0000 C CNN
F 1 "10k" V 2734 1650 50  0000 C CNN
F 2 "Resistor_SMD:R_0805_2012Metric_Pad1.15x1.40mm_HandSolder" V 2780 1650 50  0001 C CNN
F 3 "~" H 2850 1650 50  0001 C CNN
	1    2850 1650
	0    -1   -1   0   
$EndComp
Wire Wire Line
	2700 1650 2500 1650
Wire Wire Line
	2500 1550 4300 1550
Connection ~ 4300 1550
Wire Wire Line
	4800 1650 4800 2450
Wire Wire Line
	3000 1650 4800 1650
Connection ~ 4800 2450
Wire Wire Line
	4800 4850 4800 6200
Wire Wire Line
	4800 6200 5050 6200
Connection ~ 4800 4850
Connection ~ 5050 6200
Wire Wire Line
	5000 10750 4750 10750
Wire Wire Line
	4750 10750 4750 9550
Connection ~ 5000 10750
Connection ~ 4750 9550
$EndSCHEMATC
