%TF.GenerationSoftware,KiCad,Pcbnew,5.1.6*%
%TF.CreationDate,2020-07-08T18:44:53+02:00*%
%TF.ProjectId,frontPanel,66726f6e-7450-4616-9e65-6c2e6b696361,rev?*%
%TF.SameCoordinates,Original*%
%TF.FileFunction,Copper,L2,Bot*%
%TF.FilePolarity,Positive*%
%FSLAX46Y46*%
G04 Gerber Fmt 4.6, Leading zero omitted, Abs format (unit mm)*
G04 Created by KiCad (PCBNEW 5.1.6) date 2020-07-08 18:44:53*
%MOMM*%
%LPD*%
G01*
G04 APERTURE LIST*
%TA.AperFunction,ComponentPad*%
%ADD10C,6.400000*%
%TD*%
%TA.AperFunction,ComponentPad*%
%ADD11C,0.800000*%
%TD*%
G04 APERTURE END LIST*
D10*
%TO.P,REF\u002A\u002A,1*%
%TO.N,N/C*%
X225247200Y-75996800D03*
D11*
X227647200Y-75996800D03*
X226944256Y-77693856D03*
X225247200Y-78396800D03*
X223550144Y-77693856D03*
X222847200Y-75996800D03*
X223550144Y-74299744D03*
X225247200Y-73596800D03*
X226944256Y-74299744D03*
%TD*%
%TO.P,REF\u002A\u002A,1*%
%TO.N,N/C*%
X226944256Y-117022544D03*
X225247200Y-116319600D03*
X223550144Y-117022544D03*
X222847200Y-118719600D03*
X223550144Y-120416656D03*
X225247200Y-121119600D03*
X226944256Y-120416656D03*
X227647200Y-118719600D03*
D10*
X225247200Y-118719600D03*
%TD*%
%TO.P,REF\u002A\u002A,1*%
%TO.N,N/C*%
X67564000Y-118719600D03*
D11*
X69964000Y-118719600D03*
X69261056Y-120416656D03*
X67564000Y-121119600D03*
X65866944Y-120416656D03*
X65164000Y-118719600D03*
X65866944Y-117022544D03*
X67564000Y-116319600D03*
X69261056Y-117022544D03*
%TD*%
%TO.P,REF\u002A\u002A,1*%
%TO.N,N/C*%
X69261056Y-74299744D03*
X67564000Y-73596800D03*
X65866944Y-74299744D03*
X65164000Y-75996800D03*
X65866944Y-77693856D03*
X67564000Y-78396800D03*
X69261056Y-77693856D03*
X69964000Y-75996800D03*
D10*
X67564000Y-75996800D03*
%TD*%
M02*
