(module LOGO (layer F.Cu)
  (at 0 0)
 (fp_text reference "G***" (at 0 0) (layer F.SilkS) hide
  (effects (font (thickness 0.3)))
  )
  (fp_text value "LOGO" (at 0.75 0) (layer F.SilkS) hide
  (effects (font (thickness 0.3)))
  )
  (fp_poly (pts (xy -0.995330 -11.544572) (xy -0.994834 -11.537722) (xy -1.012273 -11.518260) (xy -1.056841 -11.489707) (xy -1.091337 -11.471727) (xy -1.134778 -11.447245) (xy -1.174969 -11.414884) (xy -1.217899 -11.367921)
     (xy -1.269561 -11.299634) (xy -1.335942 -11.203300) (xy -1.352367 -11.178797) (xy -1.430001 -11.060224) (xy -1.515263 -10.926135) (xy -1.597117 -10.794075) (xy -1.656989 -10.694459) (xy -1.797084 -10.456334)
     (xy -1.373028 -10.456334) (xy -1.222971 -10.455765) (xy -1.110984 -10.453877) (xy -1.032819 -10.450400) (xy -0.984226 -10.445062) (xy -0.960955 -10.437594) (xy -0.957724 -10.429875) (xy -0.974484 -10.419569)
     (xy -1.019667 -10.410469) (xy -1.096563 -10.402244) (xy -1.208460 -10.394561) (xy -1.358649 -10.387088) (xy -1.398696 -10.385375) (xy -1.530825 -10.378901) (xy -1.649242 -10.371285) (xy -1.747164 -10.363109)
     (xy -1.817808 -10.354958) (xy -1.854388 -10.347415) (xy -1.857159 -10.345921) (xy -1.877227 -10.318062) (xy -1.910701 -10.259457) (xy -1.953709 -10.178006) (xy -2.002381 -10.081612) (xy -2.052846 -9.978176)
     (xy -2.101233 -9.875598) (xy -2.143671 -9.781781) (xy -2.176289 -9.704624) (xy -2.191934 -9.662584) (xy -2.225530 -9.531554) (xy -2.238393 -9.409711) (xy -2.230267 -9.306373) (xy -2.203690 -9.235107)
     (xy -2.148237 -9.177288) (xy -2.072062 -9.149045) (xy -1.973118 -9.150519) (xy -1.849360 -9.181850) (xy -1.698742 -9.243178) (xy -1.634554 -9.274120) (xy -1.556551 -9.310750) (xy -1.492869 -9.336346)
     (xy -1.452671 -9.347435) (xy -1.444087 -9.346309) (xy -1.443213 -9.328055) (xy -1.471368 -9.300697) (xy -1.531532 -9.262162) (xy -1.626685 -9.210372) (xy -1.674111 -9.186037) (xy -1.833168 -9.115772)
     (xy -1.988314 -9.066622) (xy -2.134251 -9.038826) (xy -2.265678 -9.032627) (xy -2.377296 -9.048266) (xy -2.463805 -9.085984) (xy -2.519905 -9.146022) (xy -2.520702 -9.147490) (xy -2.537597 -9.204981)
     (xy -2.545208 -9.285315) (xy -2.542935 -9.369904) (xy -2.530181 -9.440160) (xy -2.530125 -9.440334) (xy -2.531693 -9.454768) (xy -2.555015 -9.443485) (xy -2.602247 -9.404875) (xy -2.675548 -9.337332)
     (xy -2.701195 -9.312865) (xy -2.841862 -9.186505) (xy -2.984986 -9.073569) (xy -3.121910 -8.980315) (xy -3.243978 -8.913005) (xy -3.270250 -8.901343) (xy -3.355480 -8.876545) (xy -3.452052 -8.864716)
     (xy -3.543945 -8.866505) (xy -3.615136 -8.882564) (xy -3.624405 -8.886961) (xy -3.673997 -8.924549) (xy -3.701574 -8.957215) (xy -3.718098 -9.008315) (xy -3.726384 -9.085140) (xy -3.726262 -9.171855)
     (xy -3.717559 -9.252625) (xy -3.705292 -9.299792) (xy -3.689388 -9.344012) (xy -3.683000 -9.366361) (xy -3.696231 -9.356037) (xy -3.731304 -9.321533) (xy -3.781290 -9.269725) (xy -3.794125 -9.256128)
     (xy -3.907600 -9.152863) (xy -4.018586 -9.088759) (xy -4.131877 -9.061277) (xy -4.164542 -9.059799) (xy -4.250930 -9.074669) (xy -4.308577 -9.119183) (xy -4.337193 -9.191636) (xy -4.336488 -9.290325)
     (xy -4.306170 -9.413543) (xy -4.248781 -9.553654) (xy -4.211360 -9.634646) (xy -4.195074 -9.680277) (xy -4.202123 -9.693048) (xy -4.234708 -9.675460) (xy -4.295028 -9.630013) (xy -4.307417 -9.620310)
     (xy -4.505148 -9.485759) (xy -4.738311 -9.363122) (xy -5.001104 -9.254736) (xy -5.287723 -9.162939) (xy -5.592366 -9.090066) (xy -5.653593 -9.078220) (xy -5.920269 -9.028599) (xy -6.011897 -8.869342)
     (xy -6.123136 -8.672911) (xy -6.249917 -8.443522) (xy -6.389447 -8.186373) (xy -6.538937 -7.906664) (xy -6.695594 -7.609594) (xy -6.856628 -7.300361) (xy -6.915637 -7.186084) (xy -7.051881 -6.922338)
     (xy -7.170399 -6.694481) (xy -7.272294 -6.500487) (xy -7.358670 -6.338331) (xy -7.430628 -6.205986) (xy -7.489272 -6.101426) (xy -7.535706 -6.022624) (xy -7.571031 -5.967556) (xy -7.596352 -5.934195)
     (xy -7.598373 -5.931977) (xy -7.654168 -5.884622) (xy -7.732180 -5.840835) (xy -7.838317 -5.797988) (xy -7.978487 -5.753450) (xy -8.036639 -5.736988) (xy -8.141482 -5.707702) (xy -8.242435 -5.678945)
     (xy -8.325788 -5.654650) (xy -8.366125 -5.642465) (xy -8.426061 -5.625285) (xy -8.456065 -5.622406) (xy -8.466054 -5.633839) (xy -8.466667 -5.642594) (xy -8.449244 -5.675080) (xy -8.429625 -5.686501)
     (xy -8.333765 -5.725102) (xy -8.223720 -5.778996) (xy -8.112940 -5.840693) (xy -8.014873 -5.902699) (xy -7.942969 -5.957520) (xy -7.942650 -5.957807) (xy -7.908493 -5.989237) (xy -7.875353 -6.021815)
     (xy -7.841848 -6.057716) (xy -7.806595 -6.099115) (xy -7.768214 -6.148187) (xy -7.725324 -6.207105) (xy -7.676542 -6.278045) (xy -7.620487 -6.363181) (xy -7.555778 -6.464687) (xy -7.481034 -6.584739)
     (xy -7.394872 -6.725511) (xy -7.295912 -6.889177) (xy -7.182772 -7.077912) (xy -7.054071 -7.293891) (xy -6.908427 -7.539287) (xy -6.744458 -7.816277) (xy -6.560784 -8.127034) (xy -6.510199 -8.212667)
     (xy -6.391952 -8.413521) (xy -6.294125 -8.581299) (xy -6.215073 -8.719050) (xy -6.153148 -8.829825) (xy -6.106703 -8.916674) (xy -6.074090 -8.982647) (xy -6.053664 -9.030793) (xy -6.043777 -9.064164)
     (xy -6.042221 -9.079305) (xy -6.037114 -9.131684) (xy -6.014577 -9.156998) (xy -5.992702 -9.164327) (xy -5.968303 -9.183693) (xy -5.956684 -9.198032) (xy -5.820834 -9.198032) (xy -5.809972 -9.187238)
     (xy -5.774349 -9.193616) (xy -5.709404 -9.218434) (xy -5.645744 -9.246684) (xy -5.505265 -9.323538) (xy -5.364173 -9.423481) (xy -5.227277 -9.540895) (xy -5.099383 -9.670163) (xy -4.985300 -9.805668)
     (xy -4.889835 -9.941792) (xy -4.817795 -10.072917) (xy -4.773988 -10.193426) (xy -4.762500 -10.278728) (xy -4.768438 -10.346889) (xy -4.787741 -10.381257) (xy -4.796497 -10.386041) (xy -4.849408 -10.385458)
     (xy -4.921793 -10.354792) (xy -5.008502 -10.298393) (xy -5.104381 -10.220612) (xy -5.204280 -10.125799) (xy -5.303047 -10.018306) (xy -5.395530 -9.902481) (xy -5.435150 -9.846714) (xy -5.482873 -9.774406)
     (xy -5.539000 -9.685822) (xy -5.599363 -9.587971) (xy -5.659793 -9.487867) (xy -5.716120 -9.392519) (xy -5.764177 -9.308939) (xy -5.799794 -9.244139) (xy -5.818804 -9.205130) (xy -5.820834 -9.198032)
     (xy -5.956684 -9.198032) (xy -5.927147 -9.234483) (xy -5.868777 -9.317421) (xy -5.792735 -9.433232) (xy -5.698563 -9.582641) (xy -5.585805 -9.766371) (xy -5.454001 -9.985147) (xy -5.302695 -10.239693)
     (xy -5.156438 -10.488084) (xy -5.052125 -10.660228) (xy -4.955102 -10.809199) (xy -4.867662 -10.931925) (xy -4.792102 -11.025338) (xy -4.730717 -11.086368) (xy -4.690919 -11.110642) (xy -4.622627 -11.128401)
     (xy -4.550231 -11.141568) (xy -4.485317 -11.148809) (xy -4.439474 -11.148791) (xy -4.424097 -11.141362) (xy -4.438100 -11.119958) (xy -4.476123 -11.074807) (xy -4.532501 -11.012348) (xy -4.601573 -10.939017)
     (xy -4.607756 -10.932584) (xy -4.710835 -10.821395) (xy -4.824192 -10.692264) (xy -4.938726 -10.556102) (xy -5.045331 -10.423822) (xy -5.134905 -10.306336) (xy -5.163993 -10.265834) (xy -5.177966 -10.241332)
     (xy -5.165462 -10.244935) (xy -5.125465 -10.277351) (xy -5.056958 -10.339290) (xy -5.051722 -10.344143) (xy -4.916023 -10.459668) (xy -4.796041 -10.540299) (xy -4.692905 -10.585715) (xy -4.607741 -10.595594)
     (xy -4.541678 -10.569612) (xy -4.495842 -10.507447) (xy -4.494162 -10.503527) (xy -4.478261 -10.459095) (xy -4.474339 -10.419394) (xy -4.483292 -10.369787) (xy -4.506016 -10.295639) (xy -4.507094 -10.292353)
     (xy -4.567781 -10.145612) (xy -4.654235 -10.001686) (xy -4.771392 -9.853123) (xy -4.865408 -9.751508) (xy -4.992448 -9.626364) (xy -5.111736 -9.522629) (xy -5.237932 -9.428688) (xy -5.385692 -9.332927)
     (xy -5.420333 -9.311801) (xy -5.598584 -9.203989) (xy -5.471852 -9.218479) (xy -5.214188 -9.265664) (xy -4.950475 -9.346627) (xy -4.692013 -9.456534) (xy -4.450103 -9.590547) (xy -4.236045 -9.743832)
     (xy -4.227235 -9.751116) (xy -4.177182 -9.795657) (xy -4.132622 -9.843376) (xy -4.088324 -9.901608) (xy -4.039056 -9.977689) (xy -3.979588 -10.078954) (xy -3.928070 -10.170584) (xy -3.855954 -10.298112)
     (xy -3.799428 -10.391054) (xy -3.754778 -10.452497) (xy -3.718292 -10.485533) (xy -3.686257 -10.493250) (xy -3.654960 -10.478737) (xy -3.620687 -10.445085) (xy -3.611311 -10.434152) (xy -3.555167 -10.367429)
     (xy -3.602188 -10.290173) (xy -3.636656 -10.234413) (xy -3.684468 -10.158155) (xy -3.736125 -10.076540) (xy -3.743632 -10.064750) (xy -3.804020 -9.964612) (xy -3.869322 -9.847339) (xy -3.935017 -9.722027)
     (xy -3.996583 -9.597768) (xy -4.049499 -9.483658) (xy -4.089244 -9.388790) (xy -4.109765 -9.328326) (xy -4.123559 -9.239708) (xy -4.109054 -9.181356) (xy -4.065691 -9.151558) (xy -4.051202 -9.148506)
     (xy -4.001723 -9.159212) (xy -3.935778 -9.199186) (xy -3.860585 -9.262607) (xy -3.783364 -9.343657) (xy -3.735546 -9.402979) (xy -3.701270 -9.449344) (xy -3.669077 -9.495163) (xy -3.635823 -9.545648)
     (xy -3.598367 -9.606009) (xy -3.553565 -9.681459) (xy -3.498275 -9.777208) (xy -3.429353 -9.898470) (xy -3.343658 -10.050455) (xy -3.323712 -10.085917) (xy -3.249658 -10.216567) (xy -3.192628 -10.313203)
     (xy -3.149445 -10.379011) (xy -3.116933 -10.417181) (xy -3.091917 -10.430901) (xy -3.071218 -10.423357) (xy -3.051662 -10.397740) (xy -3.037961 -10.372718) (xy -3.013651 -10.316485) (xy -3.004292 -10.263375)
     (xy -3.012067 -10.206597) (xy -3.039161 -10.139363) (xy -3.087759 -10.054883) (xy -3.160044 -9.946369) (xy -3.188087 -9.906099) (xy -3.260237 -9.799684) (xy -3.329950 -9.690686) (xy -3.390236 -9.590442)
     (xy -3.434103 -9.510286) (xy -3.441331 -9.495469) (xy -3.485281 -9.386404) (xy -3.518811 -9.272214) (xy -3.539775 -9.163819) (xy -3.546024 -9.072142) (xy -3.536586 -9.011027) (xy -3.496615 -8.955893)
     (xy -3.432836 -8.932383) (xy -3.348028 -8.939178) (xy -3.244971 -8.974960) (xy -3.126445 -9.038410) (xy -2.995230 -9.128208) (xy -2.854105 -9.243038) (xy -2.705850 -9.381579) (xy -2.662029 -9.425890)
     (xy -2.567369 -9.527408) (xy -2.494798 -9.616964) (xy -2.433562 -9.709305) (xy -2.372903 -9.819178) (xy -2.367417 -9.829823) (xy -2.311605 -9.936335) (xy -2.251249 -10.047955) (xy -2.195420 -10.148049)
     (xy -2.168524 -10.194543) (xy -2.079357 -10.345502) (xy -2.256762 -10.334435) (xy -2.353026 -10.330659) (xy -2.410621 -10.335162) (xy -2.432728 -10.349856) (xy -2.422529 -10.376652) (xy -2.387843 -10.413176)
     (xy -2.355773 -10.436079) (xy -2.313139 -10.449320) (xy -2.248461 -10.455256) (xy -2.177764 -10.456334) (xy -2.014011 -10.456334) (xy -1.778169 -10.846702) (xy -1.685273 -11.000477) (xy -1.610754 -11.122561)
     (xy -1.550800 -11.217314) (xy -1.501595 -11.289096) (xy -1.459329 -11.342267) (xy -1.420186 -11.381188) (xy -1.380355 -11.410218) (xy -1.336022 -11.433717) (xy -1.283374 -11.456047) (xy -1.225255 -11.478934)
     (xy -1.126965 -11.517333) (xy -1.061354 -11.541430) (xy -1.021897 -11.552893) (xy -1.002064 -11.553385) (xy -0.995330 -11.544572) )(layer F.SilkS) (width  0.010000)
  )
  (fp_poly (pts (xy -5.524997 -11.544572) (xy -5.524500 -11.537722) (xy -5.541939 -11.518260) (xy -5.586507 -11.489707) (xy -5.621004 -11.471727) (xy -5.664445 -11.447245) (xy -5.704635 -11.414884) (xy -5.747566 -11.367921)
     (xy -5.799227 -11.299634) (xy -5.865609 -11.203300) (xy -5.882034 -11.178797) (xy -5.959668 -11.060224) (xy -6.044929 -10.926135) (xy -6.126784 -10.794075) (xy -6.186655 -10.694459) (xy -6.326750 -10.456334)
     (xy -5.902695 -10.456334) (xy -5.752637 -10.455765) (xy -5.640651 -10.453877) (xy -5.562486 -10.450400) (xy -5.513892 -10.445062) (xy -5.490622 -10.437594) (xy -5.487391 -10.429875) (xy -5.504151 -10.419569)
     (xy -5.549334 -10.410469) (xy -5.626229 -10.402244) (xy -5.738127 -10.394561) (xy -5.888316 -10.387088) (xy -5.928363 -10.385375) (xy -6.060491 -10.378901) (xy -6.178909 -10.371285) (xy -6.276831 -10.363109)
     (xy -6.347474 -10.354958) (xy -6.384055 -10.347415) (xy -6.386826 -10.345921) (xy -6.406894 -10.318062) (xy -6.440367 -10.259457) (xy -6.483376 -10.178006) (xy -6.532048 -10.081612) (xy -6.582513 -9.978176)
     (xy -6.630899 -9.875598) (xy -6.673337 -9.781781) (xy -6.705956 -9.704624) (xy -6.721600 -9.662584) (xy -6.755197 -9.531554) (xy -6.768060 -9.409711) (xy -6.759934 -9.306373) (xy -6.733356 -9.235107)
     (xy -6.677904 -9.177288) (xy -6.601729 -9.149045) (xy -6.502784 -9.150519) (xy -6.379026 -9.181850) (xy -6.228409 -9.243178) (xy -6.164221 -9.274120) (xy -6.086218 -9.310750) (xy -6.022535 -9.336346)
     (xy -5.982338 -9.347435) (xy -5.973754 -9.346309) (xy -5.972880 -9.328055) (xy -6.001035 -9.300697) (xy -6.061199 -9.262162) (xy -6.156351 -9.210372) (xy -6.203778 -9.186037) (xy -6.362834 -9.115772)
     (xy -6.517981 -9.066622) (xy -6.663917 -9.038826) (xy -6.795344 -9.032627) (xy -6.906962 -9.048266) (xy -6.993471 -9.085984) (xy -7.049572 -9.146022) (xy -7.050368 -9.147490) (xy -7.067264 -9.204981)
     (xy -7.074875 -9.285315) (xy -7.072602 -9.369904) (xy -7.059847 -9.440160) (xy -7.059792 -9.440334) (xy -7.061360 -9.454768) (xy -7.084681 -9.443485) (xy -7.131914 -9.404875) (xy -7.205215 -9.337332)
     (xy -7.230862 -9.312865) (xy -7.421027 -9.143930) (xy -7.598665 -9.013834) (xy -7.763343 -8.922805) (xy -7.914627 -8.871070) (xy -8.052084 -8.858855) (xy -8.089320 -8.862741) (xy -8.159003 -8.892168)
     (xy -8.218491 -8.949606) (xy -8.254553 -9.020843) (xy -8.259076 -9.045129) (xy -8.259451 -9.118733) (xy -8.250947 -9.208266) (xy -8.236182 -9.292775) (xy -8.222018 -9.341689) (xy -8.227719 -9.345978)
     (xy -8.256260 -9.323496) (xy -8.302088 -9.278874) (xy -8.320800 -9.259292) (xy -8.433567 -9.155873) (xy -8.542776 -9.091052) (xy -8.653679 -9.062024) (xy -8.694209 -9.059799) (xy -8.781418 -9.072731)
     (xy -8.837724 -9.114012) (xy -8.865223 -9.185764) (xy -8.868834 -9.236589) (xy -8.861283 -9.319264) (xy -8.842723 -9.402412) (xy -8.838855 -9.414147) (xy -8.809797 -9.485476) (xy -8.763268 -9.586344)
     (xy -8.702895 -9.709591) (xy -8.632307 -9.848056) (xy -8.555133 -9.994576) (xy -8.474998 -10.141992) (xy -8.422983 -10.235006) (xy -8.356943 -10.349004) (xy -8.305803 -10.428326) (xy -8.265228 -10.476005)
     (xy -8.230883 -10.495077) (xy -8.198432 -10.488575) (xy -8.163541 -10.459534) (xy -8.140049 -10.433048) (xy -8.084834 -10.367429) (xy -8.131855 -10.290173) (xy -8.166323 -10.234413) (xy -8.214135 -10.158155)
     (xy -8.265792 -10.076540) (xy -8.273299 -10.064750) (xy -8.333687 -9.964612) (xy -8.398989 -9.847339) (xy -8.464684 -9.722027) (xy -8.526250 -9.597768) (xy -8.579166 -9.483658) (xy -8.618910 -9.388790)
     (xy -8.639431 -9.328326) (xy -8.653226 -9.239708) (xy -8.638720 -9.181356) (xy -8.595358 -9.151558) (xy -8.580869 -9.148506) (xy -8.531390 -9.159212) (xy -8.465444 -9.199186) (xy -8.390252 -9.262607)
     (xy -8.313031 -9.343657) (xy -8.265212 -9.402979) (xy -8.230936 -9.449344) (xy -8.198743 -9.495163) (xy -8.165490 -9.545648) (xy -8.128034 -9.606009) (xy -8.083232 -9.681459) (xy -8.027941 -9.777208)
     (xy -7.959020 -9.898470) (xy -7.873324 -10.050455) (xy -7.853379 -10.085917) (xy -7.779324 -10.216567) (xy -7.722294 -10.313203) (xy -7.679112 -10.379011) (xy -7.646600 -10.417181) (xy -7.621583 -10.430901)
     (xy -7.600885 -10.423357) (xy -7.581328 -10.397740) (xy -7.567627 -10.372718) (xy -7.543318 -10.316485) (xy -7.533958 -10.263375) (xy -7.541734 -10.206597) (xy -7.568828 -10.139363) (xy -7.617426 -10.054883)
     (xy -7.689711 -9.946369) (xy -7.717753 -9.906099) (xy -7.789903 -9.799684) (xy -7.859617 -9.690686) (xy -7.919903 -9.590442) (xy -7.963770 -9.510286) (xy -7.970998 -9.495469) (xy -8.014947 -9.386404)
     (xy -8.048478 -9.272214) (xy -8.069441 -9.163819) (xy -8.075691 -9.072142) (xy -8.066253 -9.011027) (xy -8.026282 -8.955893) (xy -7.962502 -8.932383) (xy -7.877695 -8.939178) (xy -7.774638 -8.974960)
     (xy -7.656112 -9.038410) (xy -7.524897 -9.128208) (xy -7.383772 -9.243038) (xy -7.235517 -9.381579) (xy -7.191696 -9.425890) (xy -7.097036 -9.527408) (xy -7.024465 -9.616964) (xy -6.963228 -9.709305)
     (xy -6.902570 -9.819178) (xy -6.897084 -9.829823) (xy -6.841272 -9.936335) (xy -6.780915 -10.047955) (xy -6.725086 -10.148049) (xy -6.698191 -10.194543) (xy -6.609023 -10.345502) (xy -6.786429 -10.334435)
     (xy -6.882693 -10.330659) (xy -6.940287 -10.335162) (xy -6.962394 -10.349856) (xy -6.952195 -10.376652) (xy -6.917509 -10.413176) (xy -6.885440 -10.436079) (xy -6.842805 -10.449320) (xy -6.778128 -10.455256)
     (xy -6.707431 -10.456334) (xy -6.543678 -10.456334) (xy -6.307835 -10.846702) (xy -6.214940 -11.000477) (xy -6.140421 -11.122561) (xy -6.080466 -11.217314) (xy -6.031262 -11.289096) (xy -5.988995 -11.342267)
     (xy -5.949853 -11.381188) (xy -5.910022 -11.410218) (xy -5.865689 -11.433717) (xy -5.813041 -11.456047) (xy -5.754922 -11.478934) (xy -5.656631 -11.517333) (xy -5.591021 -11.541430) (xy -5.551563 -11.552893)
     (xy -5.531731 -11.553385) (xy -5.524997 -11.544572) )(layer F.SilkS) (width  0.010000)
  )
  (fp_poly (pts (xy -9.922583 -12.051526) (xy -9.801629 -12.046963) (xy -9.702061 -12.037588) (xy -9.613468 -12.022631) (xy -9.581257 -12.015497) (xy -9.363240 -11.947840) (xy -9.179010 -11.855076) (xy -9.028743 -11.737326)
     (xy -8.912614 -11.594710) (xy -8.878424 -11.535834) (xy -8.856237 -11.469252) (xy -8.840055 -11.372212) (xy -8.830473 -11.256242) (xy -8.828090 -11.132872) (xy -8.833504 -11.013629) (xy -8.846261 -10.915476)
     (xy -8.921414 -10.629484) (xy -9.034783 -10.354385) (xy -9.182852 -10.093959) (xy -9.362106 -9.851986) (xy -9.569029 -9.632246) (xy -9.800105 -9.438519) (xy -10.051819 -9.274585) (xy -10.320656 -9.144224)
     (xy -10.572750 -9.059156) (xy -10.703459 -9.032740) (xy -10.862066 -9.014325) (xy -11.034807 -9.004414) (xy -11.207915 -9.003512) (xy -11.367626 -9.012122) (xy -11.475973 -9.026105) (xy -11.687714 -9.075633)
     (xy -11.863911 -9.144111) (xy -12.007918 -9.233782) (xy -12.123090 -9.346890) (xy -12.212779 -9.485679) (xy -12.236116 -9.534683) (xy -12.280547 -9.683812) (xy -12.290857 -9.810750) (xy -11.948562 -9.810750)
     (xy -11.947907 -9.694866) (xy -11.945016 -9.611566) (xy -11.938533 -9.551108) (xy -11.927101 -9.503751) (xy -11.909364 -9.459756) (xy -11.895867 -9.432359) (xy -11.806166 -9.301394) (xy -11.685819 -9.199396)
     (xy -11.535207 -9.126528) (xy -11.354708 -9.082953) (xy -11.144702 -9.068836) (xy -11.058137 -9.071183) (xy -10.953857 -9.079393) (xy -10.848884 -9.092557) (xy -10.762365 -9.108166) (xy -10.746063 -9.112103)
     (xy -10.595126 -9.164555) (xy -10.429332 -9.244597) (xy -10.258920 -9.345727) (xy -10.094131 -9.461445) (xy -9.945206 -9.585248) (xy -9.846951 -9.682911) (xy -9.649254 -9.925463) (xy -9.477989 -10.189357)
     (xy -9.338349 -10.465580) (xy -9.236437 -10.742084) (xy -9.211155 -10.833238) (xy -9.194349 -10.914367) (xy -9.184288 -10.999165) (xy -9.179243 -11.101323) (xy -9.177636 -11.207750) (xy -9.177388 -11.322407)
     (xy -9.179459 -11.404837) (xy -9.185315 -11.465138) (xy -9.196422 -11.513407) (xy -9.214247 -11.559742) (xy -9.235147 -11.603873) (xy -9.325461 -11.741764) (xy -9.446455 -11.851175) (xy -9.597124 -11.931701)
     (xy -9.776468 -11.982942) (xy -9.983484 -12.004493) (xy -10.212446 -11.996402) (xy -10.410085 -11.965850) (xy -10.588774 -11.910988) (xy -10.756300 -11.827890) (xy -10.920453 -11.712628) (xy -11.089020 -11.561275)
     (xy -11.103207 -11.547212) (xy -11.314030 -11.310880) (xy -11.507157 -11.042299) (xy -11.677586 -10.749604) (xy -11.820315 -10.440933) (xy -11.878785 -10.285855) (xy -11.907995 -10.199167) (xy -11.927691 -10.128927)
     (xy -11.939733 -10.062477) (xy -11.945980 -9.987160) (xy -11.948291 -9.890319) (xy -11.948562 -9.810750) (xy -12.290857 -9.810750) (xy -12.294514 -9.855760) (xy -12.279696 -10.045796) (xy -12.237771 -10.249189)
     (xy -12.170416 -10.461207) (xy -12.079311 -10.677119) (xy -11.966133 -10.892195) (xy -11.832561 -11.101704) (xy -11.680273 -11.300914) (xy -11.563052 -11.432099) (xy -11.371185 -11.613517) (xy -11.174148 -11.758490)
     (xy -10.962385 -11.872682) (xy -10.726339 -11.961752) (xy -10.614904 -11.993762) (xy -10.523081 -12.016529) (xy -10.441236 -12.032403) (xy -10.357534 -12.042662) (xy -10.260143 -12.048585) (xy -10.137227 -12.051450)
     (xy -10.075334 -12.052047) (xy -9.922583 -12.051526) )(layer F.SilkS) (width  0.010000)
  )
)
